<?xml version="1.0" encoding="UTF-8" standalone="no"?>
<!-- Created with Inkscape (http://www.inkscape.org/) -->

<svg
   xmlns:osb="http://www.openswatchbook.org/uri/2009/osb"
   xmlns:dc="http://purl.org/dc/elements/1.1/"
   xmlns:cc="http://creativecommons.org/ns#"
   xmlns:rdf="http://www.w3.org/1999/02/22-rdf-syntax-ns#"
   xmlns:svg="http://www.w3.org/2000/svg"
   xmlns="http://www.w3.org/2000/svg"
   xmlns:sodipodi="http://sodipodi.sourceforge.net/DTD/sodipodi-0.dtd"
   xmlns:inkscape="http://www.inkscape.org/namespaces/inkscape"
   width="335mm"
   height="335mm"
   viewBox="0 0 335.00001 335"
   version="1.1"
   id="svg8"
   style="enable-background:new"
   inkscape:export-filename="/home/tom/Development/trackr/res/TrackrLogo_1600x1600_HRes.png"
   inkscape:export-xdpi="121.31343"
   inkscape:export-ydpi="121.31343"
   inkscape:version="0.92.4 5da689c313, 2019-01-14"
   sodipodi:docname="TrackrLogo_WhiteInside.svg">
  <defs
     id="defs2">
    <linearGradient
       id="linearGradient5462"
       osb:paint="solid">
      <stop
         style="stop-color:#0b4f6c;stop-opacity:1;"
         offset="0"
         id="stop5460" />
    </linearGradient>
    <filter
       style="color-interpolation-filters:sRGB"
       inkscape:label="Drop Shadow"
       id="filter5122">
      <feFlood
         flood-opacity="0.498039"
         flood-color="rgb(0,0,0)"
         result="flood"
         id="feFlood5112" />
      <feComposite
         in="flood"
         in2="SourceGraphic"
         operator="in"
         result="composite1"
         id="feComposite5114" />
      <feGaussianBlur
         in="composite1"
         stdDeviation="2"
         result="blur"
         id="feGaussianBlur5116" />
      <feOffset
         dx="2"
         dy="2.5"
         result="offset"
         id="feOffset5118" />
      <feComposite
         in="SourceGraphic"
         in2="offset"
         operator="over"
         result="composite2"
         id="feComposite5120" />
    </filter>
    <filter
       style="color-interpolation-filters:sRGB"
       inkscape:label="Drop Shadow"
       id="filter6954">
      <feFlood
         flood-opacity="0.498039"
         flood-color="rgb(0,0,0)"
         result="flood"
         id="feFlood6944" />
      <feComposite
         in="flood"
         in2="SourceGraphic"
         operator="in"
         result="composite1"
         id="feComposite6946" />
      <feGaussianBlur
         in="composite1"
         stdDeviation="2"
         result="blur"
         id="feGaussianBlur6948" />
      <feOffset
         dx="2"
         dy="2.5"
         result="offset"
         id="feOffset6950" />
      <feComposite
         in="SourceGraphic"
         in2="offset"
         operator="over"
         result="composite2"
         id="feComposite6952" />
    </filter>
    <filter
       inkscape:collect="always"
       style="color-interpolation-filters:sRGB"
       id="filter963">
      <feBlend
         inkscape:collect="always"
         mode="darken"
         in2="BackgroundImage"
         id="feBlend965" />
    </filter>
  </defs>
  <sodipodi:namedview
     id="base"
     pagecolor="#ffffff"
     bordercolor="#666666"
     borderopacity="1.0"
     inkscape:pageopacity="0.0"
     inkscape:pageshadow="2"
     inkscape:zoom="0.35"
     inkscape:cx="203.98801"
     inkscape:cy="687.48033"
     inkscape:document-units="mm"
     inkscape:current-layer="layer3"
     showgrid="false"
     fit-margin-top="1"
     fit-margin-left="0"
     fit-margin-right="0"
     fit-margin-bottom="-0.7"
     inkscape:window-width="1918"
     inkscape:window-height="1063"
     inkscape:window-x="1366"
     inkscape:window-y="15"
     inkscape:window-maximized="0"
     inkscape:pagecheckerboard="true" />
  <metadata
     id="metadata5">
    <rdf:RDF>
      <cc:Work
         rdf:about="">
        <dc:format>image/svg+xml</dc:format>
        <dc:type
           rdf:resource="http://purl.org/dc/dcmitype/StillImage" />
        <dc:title></dc:title>
      </cc:Work>
    </rdf:RDF>
  </metadata>
  <g
     inkscape:groupmode="layer"
     id="layer2"
     inkscape:label="Circle"
     transform="translate(-135.90497,-53.83)"
     style="display:none">
    <circle
       transform="translate(31.331909,67.608646)"
       style="display:inline;opacity:1;fill:#fbfbff;fill-opacity:1;fill-rule:nonzero;stroke:none;stroke-width:0.26458332;stroke-opacity:0;paint-order:stroke markers fill;filter:url(#filter6954);enable-background:new"
       id="path6904"
       cx="289.16098"
       cy="131.54135"
       r="191.25594" />
  </g>
  <g
     inkscape:groupmode="layer"
     id="layer3"
     inkscape:label="Fill"
     style="display:inline;filter:url(#filter963)"
     transform="translate(-1.0485355e-6,-46.06)">
    <path
       style="opacity:1;fill:#2626ff;fill-opacity:1;fill-rule:nonzero;stroke:#000000;stroke-width:2.85714293;stroke-opacity:1;paint-order:stroke markers fill"
       d=""
       id="path852"
       inkscape:connector-curvature="0"
       transform="scale(0.26458333)" />
    <path
       style="opacity:1;fill:#2626ff;fill-opacity:1;fill-rule:nonzero;stroke:none;stroke-width:2.85714293;stroke-opacity:1;paint-order:stroke markers fill"
       d="m 651.98801,848.62504 c -37.5623,-4.52414 -84.52003,-22.73562 -122.82993,-47.63682 -120.92269,-78.599 -164.27446,-235.32563 -102.75522,-371.4838 31.9974,-70.8186 105.35662,-129.82566 187.60642,-150.90269 175.65693,-45.01319 354.90136,71.69651 378.20253,246.25537 15.96739,119.61823 -50.09709,237.48566 -165.93809,296.05474 -50.45265,25.5088 -111.7124,35.24975 -174.28571,27.7132 z"
       id="path868"
       inkscape:connector-curvature="0"
       transform="scale(0.26458333)" />
    <path
       style="opacity:1;fill:#2626ff;fill-opacity:1;fill-rule:nonzero;stroke:none;stroke-width:2.85714293;stroke-opacity:1;paint-order:stroke markers fill"
       d="M 633.46107,844.19104 C 606.38237,838.1495 575.09818,825.74022 548.07169,810.32027 476.65578,769.57393 429.67591,708.54024 408.70061,629.25693 c -9.19818,-34.76766 -10.36192,-93.95724 -2.58683,-131.57037 18.99333,-91.88308 71.6815,-158.11781 158.38107,-199.10216 110.341,-52.16005 245.6177,-30.10908 335.81233,54.73955 40.62417,38.2163 65.96232,78.82868 82.21169,131.77019 7.03371,22.91632 7.71565,29.29836 7.87074,73.66156 0.2,57.21712 -3.90889,75.9464 -26.95317,122.85714 -30.77749,62.65312 -77.96617,108.655 -143.67643,140.06295 -41.24351,19.71343 -63.96831,24.65128 -119.20057,25.90094 -35.47933,0.80274 -52.08001,-0.0349 -67.09837,-3.38569 z"
       id="path870"
       inkscape:connector-curvature="0"
       transform="scale(0.26458333)" />
    <path
       style="opacity:1;fill:#2626ff;fill-opacity:1;fill-rule:nonzero;stroke:none;stroke-width:2.85714293;stroke-opacity:1;paint-order:stroke markers fill"
       d="M 634.84515,844.31904 C 541.89769,824.38784 458.49108,756.8523 423.74484,673.3881 408.03417,635.64936 402.90945,611.32987 401.39517,567.32713 c -1.15171,-33.46733 -0.37848,-44.8408 4.73457,-69.64057 18.3391,-88.94986 69.37943,-155.0189 151.65586,-196.31057 41.86585,-21.01101 82.87269,-30.39995 132.77384,-30.39995 87.30028,0 163.78674,32.97018 223.73977,96.44504 34.72143,36.76108 57.28691,76.93114 70.74903,125.94422 6.28948,22.89884 8.6124,84.16757 4.22274,111.37883 -16.426,101.82411 -97.14188,194.72929 -199.96983,230.16817 -39.08817,13.47146 -114.17493,18.04443 -154.456,9.40674 z"
       id="path880"
       inkscape:connector-curvature="0"
       transform="scale(0.26458333)" />
    <path
       style="opacity:1;fill:#ffffff;fill-opacity:1;fill-rule:nonzero;stroke:none;stroke-width:0.75595242;stroke-opacity:1;paint-order:stroke markers fill"
       d="M 158.03441,365.48465 C 142.85451,355.23607 118.1869,332.04526 105.32758,315.9333 59.963666,259.09508 42.823294,190.68652 60.34257,136.39462 63.375132,126.99677 70.519802,112.16228 75.548526,104.82247 77.751987,101.60635 83.97714,94.532187 89.382199,89.102106 103.38244,75.037054 114.19261,68.235249 132.01826,62.275317 c 13.56993,-4.537054 21.58897,-5.530186 40.50611,-5.016553 19.62994,0.532984 26.33326,2.050396 42.50737,9.622269 34.1163,15.971485 57.18217,47.224187 64.64924,87.595377 2.16305,11.69472 2.32198,38.13199 0.31115,51.76361 -7.23202,49.02689 -37.88616,102.99133 -78.99161,139.05915 -16.67122,14.62812 -30.60474,24.68472 -34.20086,24.68472 -1.31571,0 -4.5922,-1.68182 -8.76525,-4.49924 z m 18.99041,-117.23839 c 20.39113,-1.93364 41.10972,-13.84872 54.13231,-31.131 23.30347,-30.92606 20.51646,-72.42242 -6.68552,-99.5414 -18.24241,-18.186752 -42.83006,-26.591445 -68.90873,-23.554783 -14.57432,1.69707 -29.06907,7.801643 -40.78864,17.178463 -11.6475,9.31916 -20.693419,23.63674 -24.755495,39.1822 -1.713196,6.55636 -1.983029,9.16459 -2.033355,19.65476 -0.04788,9.98058 0.224414,13.21865 1.557446,18.52084 6.830393,27.16812 26.046944,47.66179 53.231794,56.76955 10.74232,3.59901 19.35621,4.33373 34.25019,2.92137 z"
       id="path886"
       inkscape:connector-curvature="0" />
    <circle
       style="opacity:1;fill:#ffffff;fill-opacity:1;fill-rule:nonzero;stroke:none;stroke-width:0.26458332;stroke-opacity:1;paint-order:stroke markers fill"
       id="path953"
       cx="163.72025"
       cy="170.15172"
       r="86.934525" />
  </g>
  <g
     inkscape:label="Logo"
     inkscape:groupmode="layer"
     id="layer1"
     transform="translate(-104.57306,13.78)"
     style="display:inline">
    <path
       style="fill:#0b4f6c;fill-opacity:1;fill-rule:nonzero;stroke-width:0.50844067;filter:url(#filter5122)"
       d="M 267.66574,311.49831 C 262.03063,309.11083 248.82098,298.87082 233.11289,284.7132 163.53063,221.99914 136.14601,123.56683 169.945,57.660172 c 42.85234,-83.560312 161.85602,-83.426074 204.07837,0.230204 36.74042,72.794764 2.1139,176.577194 -80.63724,241.685544 -15.53397,12.22207 -20.06058,14.32034 -25.72039,11.92239 z m 7.46274,-16.3002 c 2.30435,-0.64376 15.98972,-10.80959 25.34274,-18.8252 C 392.4037,197.58587 406.11022,70.137047 328.03233,20.098271 283.95447,-8.1504812 223.73096,1.6983678 190.98973,42.509981 137.3289,109.39764 170.64383,226.10883 261.83412,290.69709 c 7.28157,5.15739 8.9377,5.71811 13.29436,4.50102 z M 260.28864,178.5351 C 193.05686,166.79716 180.33927,78.717298 241.74285,50.089928 291.41497,26.93195 348.76817,68.180181 340.6139,121.19769 c -5.75778,37.43607 -42.81296,63.88664 -80.32526,57.33741 z m 23.84921,-14.11232 c 48.85668,-12.15116 58.86951,-74.192234 16.07578,-99.608229 -6.83707,-4.060669 -19.37515,-8.00956 -20.40487,-6.426546 -0.42136,0.647792 -0.6775,42.080775 -0.26013,42.080775 0.10947,0 7.90187,-4.290452 17.31645,-9.534344 9.41458,-5.243891 17.49677,-9.527212 17.9604,-9.518491 3.27927,0.06169 8.84236,10.643635 6.56387,12.485601 -0.33216,0.268512 -10.79631,6.175384 -23.25369,13.126374 -24.54193,13.69399 -24.41174,13.64035 -28.99849,11.94783 -5.76319,-2.12663 -5.81543,-2.44103 -5.646,-33.981298 0.12835,-23.891105 0.0525,-27.178755 -0.62671,-27.172085 -13.81947,0.135713 -33.41636,14.31631 -41.25172,29.850319 -20.49341,40.629314 17.96182,87.833454 62.52511,76.750094 z"
       id="path3754"
       inkscape:connector-curvature="0"
       inkscape:export-filename="/home/tom/Development/trackr/res/TrackrLogo_TopNav_441x600.png"
       inkscape:export-xdpi="40.02496"
       inkscape:export-ydpi="40.02496" />
    <path
       style="opacity:1;fill:#0b4f6c;fill-opacity:0;fill-rule:nonzero;stroke:none;stroke-width:0.69473588;stroke-opacity:0;paint-order:stroke markers fill"
       d="m 276.45451,206.27577 c -16.98733,-3.20837 -31.03896,-10.33276 -42.14737,-21.36935 -29.89904,-29.70572 -30.14019,-77.81426 -0.5338,-106.487447 9.20417,-8.914059 19.29289,-14.959442 31.68787,-18.988079 12.99964,-4.225167 29.44583,-4.676535 42.88584,-1.177007 8.30982,2.163723 21.63968,8.568277 28.17229,13.535854 13.86075,10.540088 23.89379,25.326704 28.28428,41.685119 1.57508,5.86857 1.79356,8.03661 1.79356,17.79836 0,9.85578 -0.21045,11.90141 -1.85659,18.04682 -7.23151,26.9968 -29.12647,48.56178 -56.54823,55.69595 -8.68953,2.26071 -23.35589,2.84287 -31.73785,1.25978 z m 28.41886,-15.56604 c 24.5606,-6.62676 42.42331,-26.29211 46.28625,-50.95728 1.04437,-6.66843 0.34715,-18.28428 -1.48729,-24.77867 -3.18256,-11.26701 -10.76218,-22.724115 -19.93391,-30.13144 -7.95098,-6.42141 -19.96533,-12.097055 -28.23128,-13.336611 l -3.03129,-0.454569 -0.44095,2.668961 c -0.7568,4.580546 -0.53465,45.395219 0.24707,45.395219 0.38683,0 8.5934,-4.34797 18.23682,-9.66216 22.12043,-12.189883 20.89796,-11.638878 22.90485,-10.323916 1.96974,1.290626 5.21064,7.090896 5.51824,9.876046 0.20351,1.84268 -0.19146,2.30204 -3.94225,4.58496 -9.76901,5.94591 -44.7525,24.967 -47.94675,26.06942 -3.3916,1.17054 -3.57121,1.16358 -6.79714,-0.2634 -5.67095,-2.50853 -5.58584,-1.96871 -5.90833,-37.47567 L 280.0682,71.178562 h -2.28737 c -5.69359,0 -16.89516,4.826758 -24.66529,10.628276 -17.48668,13.056331 -26.39996,29.787922 -26.39996,49.556782 0,28.75195 21.58694,54.55581 50.76344,60.67989 5.35453,1.1239 21.13269,0.35569 27.39435,-1.33378 z"
       id="path3758"
       inkscape:connector-curvature="0" />
    <path
       style="opacity:1;fill:#0b4f6c;fill-opacity:0;fill-rule:nonzero;stroke:none;stroke-width:0.69473588;stroke-opacity:0;paint-order:stroke markers fill"
       d="m 286.21224,307.89218 c -6.72405,-1.51178 -36.12641,-25.30039 -53.3155,-43.13603 -15.76582,-16.35886 -32.81732,-39.45044 -42.80639,-57.96951 -1.53401,-2.84395 -3.09303,-5.17082 -3.4645,-5.17082 -0.37146,0 -0.48217,-0.31265 -0.24601,-0.69475 0.23615,-0.3821 0.0798,-0.69473 -0.34737,-0.69473 -0.42721,0 -0.58352,-0.31262 -0.34737,-0.69475 0.23615,-0.38209 0.0462,-0.69472 -0.42216,-0.69472 -0.46833,0 -0.66932,-0.1822 -0.44663,-0.40491 0.2227,-0.22268 -0.8474,-3.11453 -2.37799,-6.42631 -1.5306,-3.31176 -4.04488,-9.14771 -5.58731,-12.96876 -1.54242,-3.82104 -3.07953,-7.05221 -3.41579,-7.18038 -0.33626,-0.12816 -0.461,-0.47635 -0.2772,-0.77375 0.34904,-0.56476 -3.70673,-13.32411 -4.42789,-13.93005 -0.22739,-0.19105 -0.45306,-0.97263 -0.5015,-1.73684 -0.0484,-0.76421 -1.06903,-5.20866 -2.26797,-9.87655 -1.19895,-4.6679 -2.37417,-9.90447 -2.61162,-11.63683 -0.23744,-1.73236 -0.6237,-3.15186 -0.85834,-3.15445 -0.23464,-0.003 -0.51352,-1.76606 -0.61974,-3.91883 -0.10621,-2.15277 -0.38031,-4.21702 -0.60911,-4.58722 -0.39878,-0.64525 -0.51693,-1.67455 -1.1762,-10.24711 -0.55842,-7.26121 -0.40897,-25.385641 0.27441,-33.277501 0.37718,-4.355794 0.52681,-8.078607 0.33251,-8.272902 -0.1943,-0.194305 -0.0668,-0.698412 0.28326,-1.120249 0.35009,-0.421837 0.73817,-2.326386 0.86239,-4.232337 0.12422,-1.905954 0.39507,-3.621679 0.60189,-3.812733 0.20682,-0.191051 0.95267,-2.837128 1.65744,-5.880174 0.70478,-3.043042 2.17522,-8.177056 3.26766,-11.408919 1.09244,-3.231863 1.84648,-6.015891 1.67564,-6.186726 -0.17084,-0.170835 0.16143,-0.782656 0.73836,-1.359591 0.57694,-0.576938 0.89224,-1.457411 0.70068,-1.956614 -0.19156,-0.499202 -0.11157,-1.005998 0.17777,-1.126208 0.28933,-0.120217 2.17068,-3.542577 4.18077,-7.605254 17.58847,-35.5486817 48.72035,-59.818097 88.22279,-68.77565 5.52285,-1.252358 9.75247,-1.588262 24.29671,-1.929573 9.68538,-0.227287 17.75915,-0.170567 17.94172,0.126045 0.18257,0.296612 1.32447,0.534055 2.53756,0.527651 2.76549,-0.0146 5.34999,0.351674 6.79143,0.962475 0.61167,0.259193 1.39325,0.406078 1.73684,0.326412 0.34358,-0.07967 1.09365,0.0207 1.66681,0.223038 0.57315,0.202337 5.25262,1.71454 10.39881,3.360452 11.28153,3.608181 25.6534,10.694216 34.75902,17.137891 8.31478,5.884031 23.29215,20.8279043 28.9983,28.9334488 2.38435,3.3869522 5.95938,9.0143112 7.94449,12.5052462 1.98514,3.490935 3.94219,6.576838 4.34902,6.857568 0.40685,0.280728 0.5171,0.515203 0.24501,0.521053 -0.2721,0.0056 0.53903,2.433526 1.8025,5.394839 1.26347,2.961312 3.17396,8.041566 4.24556,11.289458 1.07159,3.24789 2.13626,6.061571 2.36592,6.252622 0.22964,0.191054 0.44797,0.97263 0.48515,1.73684 0.0371,0.764211 0.89691,5.022371 1.91051,9.462589 1.01363,4.44021 1.84294,8.876751 1.84294,9.858981 0,0.982233 0.26511,1.949715 0.58912,2.149965 0.79094,0.48883 0.82272,45.421197 0.0336,47.496757 -0.34154,0.89826 -0.74574,3.0989 -0.89825,4.8903 -0.15253,1.7914 -0.49901,3.8042 -0.76996,4.47288 -0.27095,0.66868 -0.3127,1.68474 -0.0927,2.25789 0.21994,0.57316 0.0971,1.04211 -0.27304,1.04211 -0.37011,0 -0.67294,0.59675 -0.67294,1.32611 0,0.72935 -1.08253,5.62388 -2.40563,10.87673 -1.32309,5.25284 -2.25903,9.7878 -2.07987,10.0777 0.17916,0.28988 0.0577,0.63192 -0.26991,0.76009 -0.32763,0.12816 -1.46261,2.89038 -2.5222,6.13827 -1.05958,3.24789 -3.34662,9.48812 -5.08233,13.86718 -1.73571,4.37907 -3.15582,8.3651 -3.15582,8.85789 0,0.49278 -0.21425,0.89596 -0.4761,0.89596 -0.26186,0 -1.51514,2.26657 -2.78508,5.03684 -1.26994,2.77024 -3.98309,8.11356 -6.02926,11.87401 -2.04617,3.76046 -3.78893,7.17335 -3.87282,7.58419 -0.0839,0.41086 -0.5757,1.24202 -1.09295,1.84702 -0.51724,0.605 -3.38648,4.91482 -6.3761,9.57739 -18.18068,28.35441 -47.98547,59.90785 -74.6623,79.04272 -9.14012,6.55604 -13.61217,8.34096 -18.2727,7.29312 z m 9.33445,-19.16127 c 2.10557,-0.9961 3.99476,-2.24481 4.19819,-2.77494 0.20342,-0.53013 0.60124,-0.82088 0.88401,-0.64612 0.28278,0.17478 1.65687,-0.72891 3.05352,-2.00821 1.39665,-1.27928 2.53937,-2.168 2.53937,-1.97491 0,0.41218 5.53844,-3.98676 9.03156,-7.17334 1.33737,-1.21999 6.18315,-5.49971 10.76841,-9.51047 4.58526,-4.01077 11.3981,-10.53186 15.13964,-14.49132 3.74155,-3.95946 8.11422,-8.52768 9.71704,-10.15163 1.60282,-1.62396 2.72516,-2.95264 2.49408,-2.95264 -0.23107,0 0.61205,-1.0944 1.8736,-2.43206 2.50299,-2.65392 12.71232,-16.36246 12.79295,-17.17767 0.0274,-0.2775 0.81759,-1.33287 1.75589,-2.34531 0.93827,-1.01243 1.5573,-2.08133 1.37561,-2.37531 -0.18171,-0.294 0.15659,-0.7214 0.7518,-0.94979 0.59517,-0.2284 0.88755,-0.73011 0.64974,-1.11491 -0.23784,-0.38479 -0.16873,-0.69963 0.15353,-0.69963 0.60349,0 3.18767,-3.97089 2.82517,-4.34122 -0.11153,-0.11394 0.48982,-0.95062 1.33632,-1.85925 0.84653,-0.90863 1.37518,-1.91735 1.17479,-2.24158 -0.20038,-0.32425 -0.0834,-0.58953 0.25989,-0.58953 0.58698,0 2.50893,-3.50735 2.24162,-4.09074 -0.0679,-0.14832 0.15553,-0.46095 0.49665,-0.69475 1.37443,-0.94187 10.7498,-19.8048 11.43359,-23.00394 0.1225,-0.57316 0.42596,-1.19842 0.67434,-1.38947 0.24839,-0.19106 0.56102,-0.97263 0.69475,-1.73684 0.13372,-0.76421 0.46969,-1.55936 0.74662,-1.767 0.27693,-0.20764 0.62207,-0.98922 0.76699,-1.73684 0.14492,-0.74762 0.77874,-2.52326 1.40852,-3.94586 0.62977,-1.4226 1.27745,-3.29838 1.43927,-4.16841 0.16185,-0.87004 0.35657,-1.66003 0.43272,-1.75556 0.0762,-0.0955 0.21663,-0.48631 0.31214,-0.86842 0.0955,-0.3821 0.25184,-0.85105 0.34738,-1.0421 0.0955,-0.19106 0.23975,-0.58184 0.32053,-0.86842 0.0808,-0.28658 0.34156,-0.99 0.57954,-1.56316 0.80111,-1.92928 3.99955,-13.66652 4.37353,-16.04942 0.20382,-1.29859 0.47798,-3.04664 0.60926,-3.88454 0.13128,-0.83791 0.40099,-1.78605 0.59933,-2.10699 0.19834,-0.32094 0.57485,-2.13643 0.83663,-4.03443 0.26181,-1.89799 0.59156,-4.23247 0.73276,-5.18773 1.42675,-9.65133 1.59732,-12.44908 1.60965,-26.399971 0.011,-12.43234 -0.2079,-17.93442 -0.88446,-22.231545 -0.9977,-6.336604 -1.57668,-9.506009 -2.15758,-11.810511 -0.24078,-0.955261 -0.59037,-2.518417 -0.77684,-3.473681 -0.18646,-0.955261 -0.54212,-2.3621 -0.79036,-3.12631 -0.24822,-0.764211 -0.51533,-1.742195 -0.59357,-2.173301 -0.49189,-2.71065 -2.64274,-9.191315 -3.48671,-10.50563 -0.55207,-0.859735 -0.82922,-1.563156 -0.61592,-1.563156 0.2133,0 0.002,-0.703418 -0.47163,-1.563155 -0.4727,-0.859735 -0.92718,-1.969068 -1.01,-2.465187 -0.21401,-1.282245 -5.85952,-12.572002 -6.78626,-13.571035 -0.42465,-0.457775 -1.33657,-1.940759 -2.02648,-3.295516 -0.68993,-1.35476 -1.94045,-3.268785 -2.77895,-4.253388 -0.8385,-0.984606 -3.46096,-4.256548 -5.82768,-7.2709872 -5.30881,-6.76172047 -16.2679,-17.3750688 -21.76194,-21.0753948 -0.851,-0.573156 -1.89974,-1.369599 -2.33055,-1.769873 -1.76661,-1.641374 -7.38405,-5.204401 -7.39392,-4.689809 -0.006,0.304937 -0.24033,0.225295 -0.52106,-0.17698 -0.68829,-0.98631 -5.72093,-4.015995 -5.72093,-3.444044 0,0.249508 -0.49415,-0.0405 -1.09811,-0.64446 -0.60397,-0.603962 -1.38554,-0.920473 -1.73684,-0.703358 -0.3513,0.217113 -0.63873,0.113377 -0.63873,-0.230528 0,-0.58015 -8.07185,-4.142099 -10.42104,-4.598601 -0.57316,-0.111378 -1.94804,-0.573005 -3.05532,-1.025838 -2.86532,-1.17182 -12.08447,-3.505496 -15.7354,-3.983163 -1.7014,-0.222602 -4.34398,-0.57726 -5.8724,-0.788128 -3.82835,-0.528179 -24.9258,-0.50487 -29.17891,0.03224 -3.39625,0.428898 -5.34643,0.753203 -9.20711,1.531097 -1.04977,0.211518 -2.37761,0.418087 -2.95077,0.459042 -0.57316,0.04095 -1.43289,0.38276 -1.91052,0.759567 -0.47763,0.376809 -0.86842,0.512576 -0.86842,0.301707 0,-0.441815 -7.67431,1.719854 -10.76841,3.033201 -1.14631,0.486575 -2.24052,0.921956 -2.43157,0.967514 -0.19106,0.04556 -1.05079,0.473545 -1.91053,0.951079 -0.85973,0.477535 -1.56315,0.675431 -1.56315,0.43977 0,-0.235661 -1.04625,0.218144 -2.325,1.008453 -1.27875,0.79031 -2.52927,1.232648 -2.77894,0.982976 -0.24967,-0.249672 -0.45395,-0.08921 -0.45395,0.356579 0,0.445788 -0.23447,0.773503 -0.52105,0.728252 -1.24125,-0.195985 -2.14487,0.168634 -3.64737,1.471745 -0.88114,0.764207 -2.00085,1.38947 -2.48825,1.38947 -0.4874,0 -1.30407,0.390788 -1.81482,0.86842 -0.51075,0.477632 -2.09624,1.464755 -3.5233,2.19361 -1.42707,0.728852 -2.59466,1.588587 -2.59466,1.910523 0,0.321933 -0.47876,0.585334 -1.06391,0.585334 -0.58515,0 -1.24386,0.468948 -1.4638,1.042105 -0.21994,0.573156 -0.81313,1.042102 -1.3182,1.042102 -0.50507,0 -2.07851,1.094209 -3.49653,2.431576 -1.41803,1.3373663 -2.7533,2.4315753 -2.96729,2.4315753 -0.75642,0 -16.09024,16.1260565 -16.09024,16.9215605 0,0.444037 -0.63739,1.2054 -1.41643,1.691915 -0.77903,0.4865172 -1.22953,1.1869812 -1.0011,1.5565872 0.22843,0.36961 0.11435,0.672015 -0.25351,0.672015 -0.71627,0 -7.56234,10.319972 -7.897,11.904167 -0.1102,0.521642 -0.395,1.104763 -0.6329,1.295814 -1.60429,1.288402 -10.14785,21.593413 -10.65311,25.318664 -0.10657,0.785766 -0.37599,1.897614 -0.5987,2.470773 -0.66672,1.715824 -1.92219,6.89339 -2.19584,9.055693 -0.14068,1.111578 -0.44097,2.320696 -0.6673,2.68692 -0.22634,0.366222 -0.5983,2.328949 -0.82657,4.361607 -0.22827,2.032666 -0.58309,5.102591 -0.78847,6.822063 -0.20539,1.719463 -0.36754,11.098403 -0.36033,20.842073 0.0112,15.086701 0.23004,18.849871 1.47496,25.357861 0.80403,4.20315 1.63524,8.70152 1.84714,9.99637 0.2119,1.29485 0.55487,2.62868 0.76216,2.96408 0.20729,0.3354 0.52631,1.4644 0.70894,2.50889 0.18263,1.04448 0.66304,3.14958 1.06757,4.678 0.40453,1.52842 0.68044,2.77895 0.61312,2.77895 -0.0673,0 0.23999,0.93789 0.68289,2.0842 0.44289,1.14632 0.92622,2.68509 1.07406,3.41948 0.43571,2.16444 3.22252,10.41498 3.77291,11.16997 0.27856,0.38211 0.70457,1.52547 0.94669,2.5408 0.24212,1.01534 1.05742,3.28594 1.81178,5.04578 0.75435,1.75984 1.40486,3.43016 1.44558,3.71183 0.0407,0.28165 0.61658,1.60631 1.27971,2.94368 0.66313,1.33737 3.64229,7.35552 6.62034,13.37367 2.97806,6.01815 5.71265,10.94209 6.07687,10.94209 0.36423,0 0.49827,0.26529 0.29788,0.58952 -0.20039,0.32425 0.18947,1.18398 0.86635,1.91053 0.67689,0.72653 1.28878,1.63363 1.35977,2.01573 0.071,0.3821 0.5975,1.24183 1.17005,1.91051 0.57254,0.66869 0.87967,1.21579 0.6825,1.21579 -0.45274,0 7.07971,11.23692 11.99184,17.88947 2.04552,2.77024 4.0379,5.03684 4.42752,5.03684 0.38962,0 0.53065,0.28758 0.3134,0.63909 -0.21724,0.35151 0.37897,1.24791 1.32491,1.99197 0.94595,0.74408 1.56098,1.51181 1.36675,1.70604 -0.19423,0.19423 0.58061,1.13885 1.72188,2.09916 1.14126,0.96032 1.92755,1.89351 1.74729,2.07376 -0.54525,0.54526 21.61618,23.04765 28.73945,29.18164 9.18071,7.90568 20.45796,16.48015 21.12925,16.06527 0.30638,-0.18935 0.55706,-0.0547 0.55706,0.29913 0,0.35389 1.25053,1.47098 2.77895,2.48245 1.52842,1.01143 2.77894,1.66052 2.77894,1.44238 0,-0.21813 0.69483,0.0901 1.54406,0.68488 2.28044,1.59728 6.37886,1.31804 10.70714,-0.72959 z"
       id="path4565"
       inkscape:connector-curvature="0" />
    <path
       style="opacity:1;fill:#0b4f6c;fill-opacity:0;fill-rule:nonzero;stroke:none;stroke-width:0.69473588;stroke-opacity:0;paint-order:stroke markers fill"
       d="m 286.21224,307.89218 c -6.72405,-1.51178 -36.12641,-25.30039 -53.3155,-43.13603 -15.76582,-16.35886 -32.81732,-39.45044 -42.80639,-57.96951 -1.53401,-2.84395 -3.09303,-5.17082 -3.4645,-5.17082 -0.37146,0 -0.48217,-0.31265 -0.24601,-0.69475 0.23615,-0.3821 0.0798,-0.69473 -0.34737,-0.69473 -0.42721,0 -0.58352,-0.31262 -0.34737,-0.69475 0.23615,-0.38209 0.0462,-0.69472 -0.42216,-0.69472 -0.46833,0 -0.66932,-0.1822 -0.44663,-0.40491 0.2227,-0.22268 -0.8474,-3.11453 -2.37799,-6.42631 -1.5306,-3.31176 -4.04488,-9.14771 -5.58731,-12.96876 -1.54242,-3.82104 -3.07953,-7.05221 -3.41579,-7.18038 -0.33626,-0.12816 -0.461,-0.47635 -0.2772,-0.77375 0.34904,-0.56476 -3.70673,-13.32411 -4.42789,-13.93005 -0.22739,-0.19105 -0.45306,-0.97263 -0.5015,-1.73684 -0.0484,-0.76421 -1.06903,-5.20866 -2.26797,-9.87655 -1.19895,-4.6679 -2.37417,-9.90447 -2.61162,-11.63683 -0.23744,-1.73236 -0.6237,-3.15186 -0.85834,-3.15445 -0.23464,-0.003 -0.51352,-1.76606 -0.61974,-3.91883 -0.10621,-2.15277 -0.38031,-4.21702 -0.60911,-4.58722 -0.39878,-0.64525 -0.51693,-1.67455 -1.1762,-10.24711 -0.55842,-7.26121 -0.40897,-25.385641 0.27441,-33.277501 0.37718,-4.355794 0.52681,-8.078607 0.33251,-8.272902 -0.1943,-0.194305 -0.0668,-0.698412 0.28326,-1.120249 0.35009,-0.421837 0.73817,-2.326386 0.86239,-4.232337 0.12422,-1.905954 0.39507,-3.621679 0.60189,-3.812733 0.20682,-0.191051 0.95267,-2.837128 1.65744,-5.880174 0.70478,-3.043042 2.17522,-8.177056 3.26766,-11.408919 1.09244,-3.231863 1.84648,-6.015891 1.67564,-6.186726 -0.17084,-0.170835 0.16143,-0.782656 0.73836,-1.359591 0.57694,-0.576938 0.89224,-1.457411 0.70068,-1.956614 -0.19156,-0.499202 -0.11157,-1.005998 0.17777,-1.126208 0.28933,-0.120217 2.17068,-3.542577 4.18077,-7.605254 17.58847,-35.5486817 48.72035,-59.818097 88.22279,-68.77565 5.52285,-1.252358 9.75247,-1.588262 24.29671,-1.929573 9.68538,-0.227287 17.75915,-0.170567 17.94172,0.126045 0.18257,0.296612 1.32447,0.534055 2.53756,0.527651 2.76549,-0.0146 5.34999,0.351674 6.79143,0.962475 0.61167,0.259193 1.39325,0.406078 1.73684,0.326412 0.34358,-0.07967 1.09365,0.0207 1.66681,0.223038 0.57315,0.202337 5.25262,1.71454 10.39881,3.360452 11.28153,3.608181 25.6534,10.694216 34.75902,17.137891 8.31478,5.884031 23.29215,20.8279043 28.9983,28.9334488 2.38435,3.3869522 5.95938,9.0143112 7.94449,12.5052462 1.98514,3.490935 3.94219,6.576838 4.34902,6.857568 0.40685,0.280728 0.5171,0.515203 0.24501,0.521053 -0.2721,0.0056 0.53903,2.433526 1.8025,5.394839 1.26347,2.961312 3.17396,8.041566 4.24556,11.289458 1.07159,3.24789 2.13626,6.061571 2.36592,6.252622 0.22964,0.191054 0.44797,0.97263 0.48515,1.73684 0.0371,0.764211 0.89691,5.022371 1.91051,9.462589 1.01363,4.44021 1.84294,8.876751 1.84294,9.858981 0,0.982233 0.26511,1.949715 0.58912,2.149965 0.79094,0.48883 0.82272,45.421197 0.0336,47.496757 -0.34154,0.89826 -0.74574,3.0989 -0.89825,4.8903 -0.15253,1.7914 -0.49901,3.8042 -0.76996,4.47288 -0.27095,0.66868 -0.3127,1.68474 -0.0927,2.25789 0.21994,0.57316 0.0971,1.04211 -0.27304,1.04211 -0.37011,0 -0.67294,0.59675 -0.67294,1.32611 0,0.72935 -1.08253,5.62388 -2.40563,10.87673 -1.32309,5.25284 -2.25903,9.7878 -2.07987,10.0777 0.17916,0.28988 0.0577,0.63192 -0.26991,0.76009 -0.32763,0.12816 -1.46261,2.89038 -2.5222,6.13827 -1.05958,3.24789 -3.34662,9.48812 -5.08233,13.86718 -1.73571,4.37907 -3.15582,8.3651 -3.15582,8.85789 0,0.49278 -0.21425,0.89596 -0.4761,0.89596 -0.26186,0 -1.51514,2.26657 -2.78508,5.03684 -1.26994,2.77024 -3.98309,8.11356 -6.02926,11.87401 -2.04617,3.76046 -3.78893,7.17335 -3.87282,7.58419 -0.0839,0.41086 -0.5757,1.24202 -1.09295,1.84702 -0.51724,0.605 -3.38648,4.91482 -6.3761,9.57739 -18.18068,28.35441 -47.98547,59.90785 -74.6623,79.04272 -9.14012,6.55604 -13.61217,8.34096 -18.2727,7.29312 z m 9.33445,-19.16127 c 2.10557,-0.9961 3.99476,-2.24481 4.19819,-2.77494 0.20342,-0.53013 0.60124,-0.82088 0.88401,-0.64612 0.28278,0.17478 1.65687,-0.72891 3.05352,-2.00821 1.39665,-1.27928 2.53937,-2.168 2.53937,-1.97491 0,0.41218 5.53844,-3.98676 9.03156,-7.17334 1.33737,-1.21999 6.18315,-5.49971 10.76841,-9.51047 4.58526,-4.01077 11.3981,-10.53186 15.13964,-14.49132 3.74155,-3.95946 8.11422,-8.52768 9.71704,-10.15163 1.60282,-1.62396 2.72516,-2.95264 2.49408,-2.95264 -0.23107,0 0.61205,-1.0944 1.8736,-2.43206 2.50299,-2.65392 12.71232,-16.36246 12.79295,-17.17767 0.0274,-0.2775 0.81759,-1.33287 1.75589,-2.34531 0.93827,-1.01243 1.5573,-2.08133 1.37561,-2.37531 -0.18171,-0.294 0.15659,-0.7214 0.7518,-0.94979 0.59517,-0.2284 0.88755,-0.73011 0.64974,-1.11491 -0.23784,-0.38479 -0.16873,-0.69963 0.15353,-0.69963 0.60349,0 3.18767,-3.97089 2.82517,-4.34122 -0.11153,-0.11394 0.48982,-0.95062 1.33632,-1.85925 0.84653,-0.90863 1.37518,-1.91735 1.17479,-2.24158 -0.20038,-0.32425 -0.0834,-0.58953 0.25989,-0.58953 0.58698,0 2.50893,-3.50735 2.24162,-4.09074 -0.0679,-0.14832 0.15553,-0.46095 0.49665,-0.69475 1.37443,-0.94187 10.7498,-19.8048 11.43359,-23.00394 0.1225,-0.57316 0.42596,-1.19842 0.67434,-1.38947 0.24839,-0.19106 0.56102,-0.97263 0.69475,-1.73684 0.13372,-0.76421 0.46969,-1.55936 0.74662,-1.767 0.27693,-0.20764 0.62207,-0.98922 0.76699,-1.73684 0.14492,-0.74762 0.77874,-2.52326 1.40852,-3.94586 0.62977,-1.4226 1.27745,-3.29838 1.43927,-4.16841 0.16185,-0.87004 0.35657,-1.66003 0.43272,-1.75556 0.0762,-0.0955 0.21663,-0.48631 0.31214,-0.86842 0.0955,-0.3821 0.25184,-0.85105 0.34738,-1.0421 0.0955,-0.19106 0.23975,-0.58184 0.32053,-0.86842 0.0808,-0.28658 0.34156,-0.99 0.57954,-1.56316 0.80111,-1.92928 3.99955,-13.66652 4.37353,-16.04942 0.20382,-1.29859 0.47798,-3.04664 0.60926,-3.88454 0.13128,-0.83791 0.40099,-1.78605 0.59933,-2.10699 0.19834,-0.32094 0.57485,-2.13643 0.83663,-4.03443 0.26181,-1.89799 0.59156,-4.23247 0.73276,-5.18773 1.42675,-9.65133 1.59732,-12.44908 1.60965,-26.399971 0.011,-12.43234 -0.2079,-17.93442 -0.88446,-22.231545 -0.9977,-6.336604 -1.57668,-9.506009 -2.15758,-11.810511 -0.24078,-0.955261 -0.59037,-2.518417 -0.77684,-3.473681 -0.18646,-0.955261 -0.54212,-2.3621 -0.79036,-3.12631 -0.24822,-0.764211 -0.51533,-1.742195 -0.59357,-2.173301 -0.49189,-2.71065 -2.64274,-9.191315 -3.48671,-10.50563 -0.55207,-0.859735 -0.82922,-1.563156 -0.61592,-1.563156 0.2133,0 0.002,-0.703418 -0.47163,-1.563155 -0.4727,-0.859735 -0.92718,-1.969068 -1.01,-2.465187 -0.21401,-1.282245 -5.85952,-12.572002 -6.78626,-13.571035 -0.42465,-0.457775 -1.33657,-1.940759 -2.02648,-3.295516 -0.68993,-1.35476 -1.94045,-3.268785 -2.77895,-4.253388 -0.8385,-0.984606 -3.46096,-4.256548 -5.82768,-7.2709872 -5.30881,-6.76172047 -16.2679,-17.3750688 -21.76194,-21.0753948 -0.851,-0.573156 -1.89974,-1.369599 -2.33055,-1.769873 -1.76661,-1.641374 -7.38405,-5.204401 -7.39392,-4.689809 -0.006,0.304937 -0.24033,0.225295 -0.52106,-0.17698 -0.68829,-0.98631 -5.72093,-4.015995 -5.72093,-3.444044 0,0.249508 -0.49415,-0.0405 -1.09811,-0.64446 -0.60397,-0.603962 -1.38554,-0.920473 -1.73684,-0.703358 -0.3513,0.217113 -0.63873,0.113377 -0.63873,-0.230528 0,-0.58015 -8.07185,-4.142099 -10.42104,-4.598601 -0.57316,-0.111378 -1.94804,-0.573005 -3.05532,-1.025838 -2.86532,-1.17182 -12.08447,-3.505496 -15.7354,-3.983163 -1.7014,-0.222602 -4.34398,-0.57726 -5.8724,-0.788128 -3.82835,-0.528179 -24.9258,-0.50487 -29.17891,0.03224 -3.39625,0.428898 -5.34643,0.753203 -9.20711,1.531097 -1.04977,0.211518 -2.37761,0.418087 -2.95077,0.459042 -0.57316,0.04095 -1.43289,0.38276 -1.91052,0.759567 -0.47763,0.376809 -0.86842,0.512576 -0.86842,0.301707 0,-0.441815 -7.67431,1.719854 -10.76841,3.033201 -1.14631,0.486575 -2.24052,0.921956 -2.43157,0.967514 -0.19106,0.04556 -1.05079,0.473545 -1.91053,0.951079 -0.85973,0.477535 -1.56315,0.675431 -1.56315,0.43977 0,-0.235661 -1.04625,0.218144 -2.325,1.008453 -1.27875,0.79031 -2.52927,1.232648 -2.77894,0.982976 -0.24967,-0.249672 -0.45395,-0.08921 -0.45395,0.356579 0,0.445788 -0.23447,0.773503 -0.52105,0.728252 -1.24125,-0.195985 -2.14487,0.168634 -3.64737,1.471745 -0.88114,0.764207 -2.00085,1.38947 -2.48825,1.38947 -0.4874,0 -1.30407,0.390788 -1.81482,0.86842 -0.51075,0.477632 -2.09624,1.464755 -3.5233,2.19361 -1.42707,0.728852 -2.59466,1.588587 -2.59466,1.910523 0,0.321933 -0.47876,0.585334 -1.06391,0.585334 -0.58515,0 -1.24386,0.468948 -1.4638,1.042105 -0.21994,0.573156 -0.81313,1.042102 -1.3182,1.042102 -0.50507,0 -2.07851,1.094209 -3.49653,2.431576 -1.41803,1.3373663 -2.7533,2.4315753 -2.96729,2.4315753 -0.75642,0 -16.09024,16.1260565 -16.09024,16.9215605 0,0.444037 -0.63739,1.2054 -1.41643,1.691915 -0.77903,0.4865172 -1.22953,1.1869812 -1.0011,1.5565872 0.22843,0.36961 0.11435,0.672015 -0.25351,0.672015 -0.71627,0 -7.56234,10.319972 -7.897,11.904167 -0.1102,0.521642 -0.395,1.104763 -0.6329,1.295814 -1.60429,1.288402 -10.14785,21.593413 -10.65311,25.318664 -0.10657,0.785766 -0.37599,1.897614 -0.5987,2.470773 -0.66672,1.715824 -1.92219,6.89339 -2.19584,9.055693 -0.14068,1.111578 -0.44097,2.320696 -0.6673,2.68692 -0.22634,0.366222 -0.5983,2.328949 -0.82657,4.361607 -0.22827,2.032666 -0.58309,5.102591 -0.78847,6.822063 -0.20539,1.719463 -0.36754,11.098403 -0.36033,20.842073 0.0112,15.086701 0.23004,18.849871 1.47496,25.357861 0.80403,4.20315 1.63524,8.70152 1.84714,9.99637 0.2119,1.29485 0.55487,2.62868 0.76216,2.96408 0.20729,0.3354 0.52631,1.4644 0.70894,2.50889 0.18263,1.04448 0.66304,3.14958 1.06757,4.678 0.40453,1.52842 0.68044,2.77895 0.61312,2.77895 -0.0673,0 0.23999,0.93789 0.68289,2.0842 0.44289,1.14632 0.92622,2.68509 1.07406,3.41948 0.43571,2.16444 3.22252,10.41498 3.77291,11.16997 0.27856,0.38211 0.70457,1.52547 0.94669,2.5408 0.24212,1.01534 1.05742,3.28594 1.81178,5.04578 0.75435,1.75984 1.40486,3.43016 1.44558,3.71183 0.0407,0.28165 0.61658,1.60631 1.27971,2.94368 0.66313,1.33737 3.64229,7.35552 6.62034,13.37367 2.97806,6.01815 5.71265,10.94209 6.07687,10.94209 0.36423,0 0.49827,0.26529 0.29788,0.58952 -0.20039,0.32425 0.18947,1.18398 0.86635,1.91053 0.67689,0.72653 1.28878,1.63363 1.35977,2.01573 0.071,0.3821 0.5975,1.24183 1.17005,1.91051 0.57254,0.66869 0.87967,1.21579 0.6825,1.21579 -0.45274,0 7.07971,11.23692 11.99184,17.88947 2.04552,2.77024 4.0379,5.03684 4.42752,5.03684 0.38962,0 0.53065,0.28758 0.3134,0.63909 -0.21724,0.35151 0.37897,1.24791 1.32491,1.99197 0.94595,0.74408 1.56098,1.51181 1.36675,1.70604 -0.19423,0.19423 0.58061,1.13885 1.72188,2.09916 1.14126,0.96032 1.92755,1.89351 1.74729,2.07376 -0.54525,0.54526 21.61618,23.04765 28.73945,29.18164 9.18071,7.90568 20.45796,16.48015 21.12925,16.06527 0.30638,-0.18935 0.55706,-0.0547 0.55706,0.29913 0,0.35389 1.25053,1.47098 2.77895,2.48245 1.52842,1.01143 2.77894,1.66052 2.77894,1.44238 0,-0.21813 0.69483,0.0901 1.54406,0.68488 2.28044,1.59728 6.37886,1.31804 10.70714,-0.72959 z"
       id="path4567"
       inkscape:connector-curvature="0" />
    <path
       style="opacity:1;fill:#0b4f6c;fill-opacity:0;fill-rule:nonzero;stroke:none;stroke-width:0.69473588;stroke-opacity:0;paint-order:stroke markers fill"
       d="m 286.21224,307.89218 c -6.72405,-1.51178 -36.12641,-25.30039 -53.3155,-43.13603 -15.76582,-16.35886 -32.81732,-39.45044 -42.80639,-57.96951 -1.53401,-2.84395 -3.09303,-5.17082 -3.4645,-5.17082 -0.37146,0 -0.48217,-0.31265 -0.24601,-0.69475 0.23615,-0.3821 0.0798,-0.69473 -0.34737,-0.69473 -0.42721,0 -0.58352,-0.31262 -0.34737,-0.69475 0.23615,-0.38209 0.0462,-0.69472 -0.42216,-0.69472 -0.46833,0 -0.66932,-0.1822 -0.44663,-0.40491 0.2227,-0.22268 -0.8474,-3.11453 -2.37799,-6.42631 -1.5306,-3.31176 -4.04488,-9.14771 -5.58731,-12.96876 -1.54242,-3.82104 -3.07953,-7.05221 -3.41579,-7.18038 -0.33626,-0.12816 -0.461,-0.47635 -0.2772,-0.77375 0.34904,-0.56476 -3.70673,-13.32411 -4.42789,-13.93005 -0.22739,-0.19105 -0.45306,-0.97263 -0.5015,-1.73684 -0.0484,-0.76421 -1.06903,-5.20866 -2.26797,-9.87655 -1.19895,-4.6679 -2.37417,-9.90447 -2.61162,-11.63683 -0.23744,-1.73236 -0.6237,-3.15186 -0.85834,-3.15445 -0.23464,-0.003 -0.51352,-1.76606 -0.61974,-3.91883 -0.10621,-2.15277 -0.38031,-4.21702 -0.60911,-4.58722 -0.39878,-0.64525 -0.51693,-1.67455 -1.1762,-10.24711 -0.55842,-7.26121 -0.40897,-25.385641 0.27441,-33.277501 0.37718,-4.355794 0.52681,-8.078607 0.33251,-8.272902 -0.1943,-0.194305 -0.0668,-0.698412 0.28326,-1.120249 0.35009,-0.421837 0.73817,-2.326386 0.86239,-4.232337 0.12422,-1.905954 0.39507,-3.621679 0.60189,-3.812733 0.20682,-0.191051 0.95267,-2.837128 1.65744,-5.880174 0.70478,-3.043042 2.17522,-8.177056 3.26766,-11.408919 1.09244,-3.231863 1.84648,-6.015891 1.67564,-6.186726 -0.17084,-0.170835 0.16143,-0.782656 0.73836,-1.359591 0.57694,-0.576938 0.89224,-1.457411 0.70068,-1.956614 -0.19156,-0.499202 -0.11157,-1.005998 0.17777,-1.126208 0.28933,-0.120217 2.17068,-3.542577 4.18077,-7.605254 17.58847,-35.5486817 48.72035,-59.818097 88.22279,-68.77565 5.52285,-1.252358 9.75247,-1.588262 24.29671,-1.929573 9.68538,-0.227287 17.75915,-0.170567 17.94172,0.126045 0.18257,0.296612 1.32447,0.534055 2.53756,0.527651 2.76549,-0.0146 5.34999,0.351674 6.79143,0.962475 0.61167,0.259193 1.39325,0.406078 1.73684,0.326412 0.34358,-0.07967 1.09365,0.0207 1.66681,0.223038 0.57315,0.202337 5.25262,1.71454 10.39881,3.360452 11.28153,3.608181 25.6534,10.694216 34.75902,17.137891 8.31478,5.884031 23.29215,20.8279043 28.9983,28.9334488 2.38435,3.3869522 5.95938,9.0143112 7.94449,12.5052462 1.98514,3.490935 3.94219,6.576838 4.34902,6.857568 0.40685,0.280728 0.5171,0.515203 0.24501,0.521053 -0.2721,0.0056 0.53903,2.433526 1.8025,5.394839 1.26347,2.961312 3.17396,8.041566 4.24556,11.289458 1.07159,3.24789 2.13626,6.061571 2.36592,6.252622 0.22964,0.191054 0.44797,0.97263 0.48515,1.73684 0.0371,0.764211 0.89691,5.022371 1.91051,9.462589 1.01363,4.44021 1.84294,8.876751 1.84294,9.858981 0,0.982233 0.26511,1.949715 0.58912,2.149965 0.79094,0.48883 0.82272,45.421197 0.0336,47.496757 -0.34154,0.89826 -0.74574,3.0989 -0.89825,4.8903 -0.15253,1.7914 -0.49901,3.8042 -0.76996,4.47288 -0.27095,0.66868 -0.3127,1.68474 -0.0927,2.25789 0.21994,0.57316 0.0971,1.04211 -0.27304,1.04211 -0.37011,0 -0.67294,0.59675 -0.67294,1.32611 0,0.72935 -1.08253,5.62388 -2.40563,10.87673 -1.32309,5.25284 -2.25903,9.7878 -2.07987,10.0777 0.17916,0.28988 0.0577,0.63192 -0.26991,0.76009 -0.32763,0.12816 -1.46261,2.89038 -2.5222,6.13827 -1.05958,3.24789 -3.34662,9.48812 -5.08233,13.86718 -1.73571,4.37907 -3.15582,8.3651 -3.15582,8.85789 0,0.49278 -0.21425,0.89596 -0.4761,0.89596 -0.26186,0 -1.51514,2.26657 -2.78508,5.03684 -1.26994,2.77024 -3.98309,8.11356 -6.02926,11.87401 -2.04617,3.76046 -3.78893,7.17335 -3.87282,7.58419 -0.0839,0.41086 -0.5757,1.24202 -1.09295,1.84702 -0.51724,0.605 -3.38648,4.91482 -6.3761,9.57739 -18.18068,28.35441 -47.98547,59.90785 -74.6623,79.04272 -9.14012,6.55604 -13.61217,8.34096 -18.2727,7.29312 z m 9.33445,-19.16127 c 2.10557,-0.9961 3.99476,-2.24481 4.19819,-2.77494 0.20342,-0.53013 0.60124,-0.82088 0.88401,-0.64612 0.28278,0.17478 1.65687,-0.72891 3.05352,-2.00821 1.39665,-1.27928 2.53937,-2.168 2.53937,-1.97491 0,0.41218 5.53844,-3.98676 9.03156,-7.17334 1.33737,-1.21999 6.18315,-5.49971 10.76841,-9.51047 4.58526,-4.01077 11.3981,-10.53186 15.13964,-14.49132 3.74155,-3.95946 8.11422,-8.52768 9.71704,-10.15163 1.60282,-1.62396 2.72516,-2.95264 2.49408,-2.95264 -0.23107,0 0.61205,-1.0944 1.8736,-2.43206 2.50299,-2.65392 12.71232,-16.36246 12.79295,-17.17767 0.0274,-0.2775 0.81759,-1.33287 1.75589,-2.34531 0.93827,-1.01243 1.5573,-2.08133 1.37561,-2.37531 -0.18171,-0.294 0.15659,-0.7214 0.7518,-0.94979 0.59517,-0.2284 0.88755,-0.73011 0.64974,-1.11491 -0.23784,-0.38479 -0.16873,-0.69963 0.15353,-0.69963 0.60349,0 3.18767,-3.97089 2.82517,-4.34122 -0.11153,-0.11394 0.48982,-0.95062 1.33632,-1.85925 0.84653,-0.90863 1.37518,-1.91735 1.17479,-2.24158 -0.20038,-0.32425 -0.0834,-0.58953 0.25989,-0.58953 0.58698,0 2.50893,-3.50735 2.24162,-4.09074 -0.0679,-0.14832 0.15553,-0.46095 0.49665,-0.69475 1.37443,-0.94187 10.7498,-19.8048 11.43359,-23.00394 0.1225,-0.57316 0.42596,-1.19842 0.67434,-1.38947 0.24839,-0.19106 0.56102,-0.97263 0.69475,-1.73684 0.13372,-0.76421 0.46969,-1.55936 0.74662,-1.767 0.27693,-0.20764 0.62207,-0.98922 0.76699,-1.73684 0.14492,-0.74762 0.77874,-2.52326 1.40852,-3.94586 0.62977,-1.4226 1.27745,-3.29838 1.43927,-4.16841 0.16185,-0.87004 0.35657,-1.66003 0.43272,-1.75556 0.0762,-0.0955 0.21663,-0.48631 0.31214,-0.86842 0.0955,-0.3821 0.25184,-0.85105 0.34738,-1.0421 0.0955,-0.19106 0.23975,-0.58184 0.32053,-0.86842 0.0808,-0.28658 0.34156,-0.99 0.57954,-1.56316 0.80111,-1.92928 3.99955,-13.66652 4.37353,-16.04942 0.20382,-1.29859 0.47798,-3.04664 0.60926,-3.88454 0.13128,-0.83791 0.40099,-1.78605 0.59933,-2.10699 0.19834,-0.32094 0.57485,-2.13643 0.83663,-4.03443 0.26181,-1.89799 0.59156,-4.23247 0.73276,-5.18773 1.42675,-9.65133 1.59732,-12.44908 1.60965,-26.399971 0.011,-12.43234 -0.2079,-17.93442 -0.88446,-22.231545 -0.9977,-6.336604 -1.57668,-9.506009 -2.15758,-11.810511 -0.24078,-0.955261 -0.59037,-2.518417 -0.77684,-3.473681 -0.18646,-0.955261 -0.54212,-2.3621 -0.79036,-3.12631 -0.24822,-0.764211 -0.51533,-1.742195 -0.59357,-2.173301 -0.49189,-2.71065 -2.64274,-9.191315 -3.48671,-10.50563 -0.55207,-0.859735 -0.82922,-1.563156 -0.61592,-1.563156 0.2133,0 0.002,-0.703418 -0.47163,-1.563155 -0.4727,-0.859735 -0.92718,-1.969068 -1.01,-2.465187 -0.21401,-1.282245 -5.85952,-12.572002 -6.78626,-13.571035 -0.42465,-0.457775 -1.33657,-1.940759 -2.02648,-3.295516 -0.68993,-1.35476 -1.94045,-3.268785 -2.77895,-4.253388 -0.8385,-0.984606 -3.46096,-4.256548 -5.82768,-7.2709872 -5.30881,-6.76172047 -16.2679,-17.3750688 -21.76194,-21.0753948 -0.851,-0.573156 -1.89974,-1.369599 -2.33055,-1.769873 -1.76661,-1.641374 -7.38405,-5.204401 -7.39392,-4.689809 -0.006,0.304937 -0.24033,0.225295 -0.52106,-0.17698 -0.68829,-0.98631 -5.72093,-4.015995 -5.72093,-3.444044 0,0.249508 -0.49415,-0.0405 -1.09811,-0.64446 -0.60397,-0.603962 -1.38554,-0.920473 -1.73684,-0.703358 -0.3513,0.217113 -0.63873,0.113377 -0.63873,-0.230528 0,-0.58015 -8.07185,-4.142099 -10.42104,-4.598601 -0.57316,-0.111378 -1.94804,-0.573005 -3.05532,-1.025838 -2.86532,-1.17182 -12.08447,-3.505496 -15.7354,-3.983163 -1.7014,-0.222602 -4.34398,-0.57726 -5.8724,-0.788128 -3.82835,-0.528179 -24.9258,-0.50487 -29.17891,0.03224 -3.39625,0.428898 -5.34643,0.753203 -9.20711,1.531097 -1.04977,0.211518 -2.37761,0.418087 -2.95077,0.459042 -0.57316,0.04095 -1.43289,0.38276 -1.91052,0.759567 -0.47763,0.376809 -0.86842,0.512576 -0.86842,0.301707 0,-0.441815 -7.67431,1.719854 -10.76841,3.033201 -1.14631,0.486575 -2.24052,0.921956 -2.43157,0.967514 -0.19106,0.04556 -1.05079,0.473545 -1.91053,0.951079 -0.85973,0.477535 -1.56315,0.675431 -1.56315,0.43977 0,-0.235661 -1.04625,0.218144 -2.325,1.008453 -1.27875,0.79031 -2.52927,1.232648 -2.77894,0.982976 -0.24967,-0.249672 -0.45395,-0.08921 -0.45395,0.356579 0,0.445788 -0.23447,0.773503 -0.52105,0.728252 -1.24125,-0.195985 -2.14487,0.168634 -3.64737,1.471745 -0.88114,0.764207 -2.00085,1.38947 -2.48825,1.38947 -0.4874,0 -1.30407,0.390788 -1.81482,0.86842 -0.51075,0.477632 -2.09624,1.464755 -3.5233,2.19361 -1.42707,0.728852 -2.59466,1.588587 -2.59466,1.910523 0,0.321933 -0.47876,0.585334 -1.06391,0.585334 -0.58515,0 -1.24386,0.468948 -1.4638,1.042105 -0.21994,0.573156 -0.81313,1.042102 -1.3182,1.042102 -0.50507,0 -2.07851,1.094209 -3.49653,2.431576 -1.41803,1.3373663 -2.7533,2.4315753 -2.96729,2.4315753 -0.75642,0 -16.09024,16.1260565 -16.09024,16.9215605 0,0.444037 -0.63739,1.2054 -1.41643,1.691915 -0.77903,0.4865172 -1.22953,1.1869812 -1.0011,1.5565872 0.22843,0.36961 0.11435,0.672015 -0.25351,0.672015 -0.71627,0 -7.56234,10.319972 -7.897,11.904167 -0.1102,0.521642 -0.395,1.104763 -0.6329,1.295814 -1.60429,1.288402 -10.14785,21.593413 -10.65311,25.318664 -0.10657,0.785766 -0.37599,1.897614 -0.5987,2.470773 -0.66672,1.715824 -1.92219,6.89339 -2.19584,9.055693 -0.14068,1.111578 -0.44097,2.320696 -0.6673,2.68692 -0.22634,0.366222 -0.5983,2.328949 -0.82657,4.361607 -0.22827,2.032666 -0.58309,5.102591 -0.78847,6.822063 -0.20539,1.719463 -0.36754,11.098403 -0.36033,20.842073 0.0112,15.086701 0.23004,18.849871 1.47496,25.357861 0.80403,4.20315 1.63524,8.70152 1.84714,9.99637 0.2119,1.29485 0.55487,2.62868 0.76216,2.96408 0.20729,0.3354 0.52631,1.4644 0.70894,2.50889 0.18263,1.04448 0.66304,3.14958 1.06757,4.678 0.40453,1.52842 0.68044,2.77895 0.61312,2.77895 -0.0673,0 0.23999,0.93789 0.68289,2.0842 0.44289,1.14632 0.92622,2.68509 1.07406,3.41948 0.43571,2.16444 3.22252,10.41498 3.77291,11.16997 0.27856,0.38211 0.70457,1.52547 0.94669,2.5408 0.24212,1.01534 1.05742,3.28594 1.81178,5.04578 0.75435,1.75984 1.40486,3.43016 1.44558,3.71183 0.0407,0.28165 0.61658,1.60631 1.27971,2.94368 0.66313,1.33737 3.64229,7.35552 6.62034,13.37367 2.97806,6.01815 5.71265,10.94209 6.07687,10.94209 0.36423,0 0.49827,0.26529 0.29788,0.58952 -0.20039,0.32425 0.18947,1.18398 0.86635,1.91053 0.67689,0.72653 1.28878,1.63363 1.35977,2.01573 0.071,0.3821 0.5975,1.24183 1.17005,1.91051 0.57254,0.66869 0.87967,1.21579 0.6825,1.21579 -0.45274,0 7.07971,11.23692 11.99184,17.88947 2.04552,2.77024 4.0379,5.03684 4.42752,5.03684 0.38962,0 0.53065,0.28758 0.3134,0.63909 -0.21724,0.35151 0.37897,1.24791 1.32491,1.99197 0.94595,0.74408 1.56098,1.51181 1.36675,1.70604 -0.19423,0.19423 0.58061,1.13885 1.72188,2.09916 1.14126,0.96032 1.92755,1.89351 1.74729,2.07376 -0.54525,0.54526 21.61618,23.04765 28.73945,29.18164 9.18071,7.90568 20.45796,16.48015 21.12925,16.06527 0.30638,-0.18935 0.55706,-0.0547 0.55706,0.29913 0,0.35389 1.25053,1.47098 2.77895,2.48245 1.52842,1.01143 2.77894,1.66052 2.77894,1.44238 0,-0.21813 0.69483,0.0901 1.54406,0.68488 2.28044,1.59728 6.37886,1.31804 10.70714,-0.72959 z"
       id="path4569"
       inkscape:connector-curvature="0" />
    <path
       style="opacity:1;fill:#0b4f6c;fill-opacity:0;fill-rule:nonzero;stroke:none;stroke-width:0.69473588;stroke-opacity:0;paint-order:stroke markers fill"
       d="m 286.21224,307.89218 c -6.72405,-1.51178 -36.12641,-25.30039 -53.3155,-43.13603 -15.76582,-16.35886 -32.81732,-39.45044 -42.80639,-57.96951 -1.53401,-2.84395 -3.09303,-5.17082 -3.4645,-5.17082 -0.37146,0 -0.48217,-0.31265 -0.24601,-0.69475 0.23615,-0.3821 0.0798,-0.69473 -0.34737,-0.69473 -0.42721,0 -0.58352,-0.31262 -0.34737,-0.69475 0.23615,-0.38209 0.0462,-0.69472 -0.42216,-0.69472 -0.46833,0 -0.66932,-0.1822 -0.44663,-0.40491 0.2227,-0.22268 -0.8474,-3.11453 -2.37799,-6.42631 -1.5306,-3.31176 -4.04488,-9.14771 -5.58731,-12.96876 -1.54242,-3.82104 -3.07953,-7.05221 -3.41579,-7.18038 -0.33626,-0.12816 -0.461,-0.47635 -0.2772,-0.77375 0.34904,-0.56476 -3.70673,-13.32411 -4.42789,-13.93005 -0.22739,-0.19105 -0.45306,-0.97263 -0.5015,-1.73684 -0.0484,-0.76421 -1.06903,-5.20866 -2.26797,-9.87655 -1.19895,-4.6679 -2.37417,-9.90447 -2.61162,-11.63683 -0.23744,-1.73236 -0.6237,-3.15186 -0.85834,-3.15445 -0.23464,-0.003 -0.51352,-1.76606 -0.61974,-3.91883 -0.10621,-2.15277 -0.38031,-4.21702 -0.60911,-4.58722 -0.39878,-0.64525 -0.51693,-1.67455 -1.1762,-10.24711 -0.55842,-7.26121 -0.40897,-25.385641 0.27441,-33.277501 0.37718,-4.355794 0.52681,-8.078607 0.33251,-8.272902 -0.1943,-0.194305 -0.0668,-0.698412 0.28326,-1.120249 0.35009,-0.421837 0.73817,-2.326386 0.86239,-4.232337 0.12422,-1.905954 0.39507,-3.621679 0.60189,-3.812733 0.20682,-0.191051 0.95267,-2.837128 1.65744,-5.880174 0.70478,-3.043042 2.17522,-8.177056 3.26766,-11.408919 1.09244,-3.231863 1.84648,-6.015891 1.67564,-6.186726 -0.17084,-0.170835 0.16143,-0.782656 0.73836,-1.359591 0.57694,-0.576938 0.89224,-1.457411 0.70068,-1.956614 -0.19156,-0.499202 -0.11157,-1.005998 0.17777,-1.126208 0.28933,-0.120217 2.17068,-3.542577 4.18077,-7.605254 17.58847,-35.5486817 48.72035,-59.818097 88.22279,-68.77565 5.52285,-1.252358 9.75247,-1.588262 24.29671,-1.929573 9.68538,-0.227287 17.75915,-0.170567 17.94172,0.126045 0.18257,0.296612 1.32447,0.534055 2.53756,0.527651 2.76549,-0.0146 5.34999,0.351674 6.79143,0.962475 0.61167,0.259193 1.39325,0.406078 1.73684,0.326412 0.34358,-0.07967 1.09365,0.0207 1.66681,0.223038 0.57315,0.202337 5.25262,1.71454 10.39881,3.360452 11.28153,3.608181 25.6534,10.694216 34.75902,17.137891 8.31478,5.884031 23.29215,20.8279043 28.9983,28.9334488 2.38435,3.3869522 5.95938,9.0143112 7.94449,12.5052462 1.98514,3.490935 3.94219,6.576838 4.34902,6.857568 0.40685,0.280728 0.5171,0.515203 0.24501,0.521053 -0.2721,0.0056 0.53903,2.433526 1.8025,5.394839 1.26347,2.961312 3.17396,8.041566 4.24556,11.289458 1.07159,3.24789 2.13626,6.061571 2.36592,6.252622 0.22964,0.191054 0.44797,0.97263 0.48515,1.73684 0.0371,0.764211 0.89691,5.022371 1.91051,9.462589 1.01363,4.44021 1.84294,8.876751 1.84294,9.858981 0,0.982233 0.26511,1.949715 0.58912,2.149965 0.79094,0.48883 0.82272,45.421197 0.0336,47.496757 -0.34154,0.89826 -0.74574,3.0989 -0.89825,4.8903 -0.15253,1.7914 -0.49901,3.8042 -0.76996,4.47288 -0.27095,0.66868 -0.3127,1.68474 -0.0927,2.25789 0.21994,0.57316 0.0971,1.04211 -0.27304,1.04211 -0.37011,0 -0.67294,0.59675 -0.67294,1.32611 0,0.72935 -1.08253,5.62388 -2.40563,10.87673 -1.32309,5.25284 -2.25903,9.7878 -2.07987,10.0777 0.17916,0.28988 0.0577,0.63192 -0.26991,0.76009 -0.32763,0.12816 -1.46261,2.89038 -2.5222,6.13827 -1.05958,3.24789 -3.34662,9.48812 -5.08233,13.86718 -1.73571,4.37907 -3.15582,8.3651 -3.15582,8.85789 0,0.49278 -0.21425,0.89596 -0.4761,0.89596 -0.26186,0 -1.51514,2.26657 -2.78508,5.03684 -1.26994,2.77024 -3.98309,8.11356 -6.02926,11.87401 -2.04617,3.76046 -3.78893,7.17335 -3.87282,7.58419 -0.0839,0.41086 -0.5757,1.24202 -1.09295,1.84702 -0.51724,0.605 -3.38648,4.91482 -6.3761,9.57739 -18.18068,28.35441 -47.98547,59.90785 -74.6623,79.04272 -9.14012,6.55604 -13.61217,8.34096 -18.2727,7.29312 z m 9.33445,-19.16127 c 2.10557,-0.9961 3.99476,-2.24481 4.19819,-2.77494 0.20342,-0.53013 0.60124,-0.82088 0.88401,-0.64612 0.28278,0.17478 1.65687,-0.72891 3.05352,-2.00821 1.39665,-1.27928 2.53937,-2.168 2.53937,-1.97491 0,0.41218 5.53844,-3.98676 9.03156,-7.17334 1.33737,-1.21999 6.18315,-5.49971 10.76841,-9.51047 4.58526,-4.01077 11.3981,-10.53186 15.13964,-14.49132 3.74155,-3.95946 8.11422,-8.52768 9.71704,-10.15163 1.60282,-1.62396 2.72516,-2.95264 2.49408,-2.95264 -0.23107,0 0.61205,-1.0944 1.8736,-2.43206 2.50299,-2.65392 12.71232,-16.36246 12.79295,-17.17767 0.0274,-0.2775 0.81759,-1.33287 1.75589,-2.34531 0.93827,-1.01243 1.5573,-2.08133 1.37561,-2.37531 -0.18171,-0.294 0.15659,-0.7214 0.7518,-0.94979 0.59517,-0.2284 0.88755,-0.73011 0.64974,-1.11491 -0.23784,-0.38479 -0.16873,-0.69963 0.15353,-0.69963 0.60349,0 3.18767,-3.97089 2.82517,-4.34122 -0.11153,-0.11394 0.48982,-0.95062 1.33632,-1.85925 0.84653,-0.90863 1.37518,-1.91735 1.17479,-2.24158 -0.20038,-0.32425 -0.0834,-0.58953 0.25989,-0.58953 0.58698,0 2.50893,-3.50735 2.24162,-4.09074 -0.0679,-0.14832 0.15553,-0.46095 0.49665,-0.69475 1.37443,-0.94187 10.7498,-19.8048 11.43359,-23.00394 0.1225,-0.57316 0.42596,-1.19842 0.67434,-1.38947 0.24839,-0.19106 0.56102,-0.97263 0.69475,-1.73684 0.13372,-0.76421 0.46969,-1.55936 0.74662,-1.767 0.27693,-0.20764 0.62207,-0.98922 0.76699,-1.73684 0.14492,-0.74762 0.77874,-2.52326 1.40852,-3.94586 0.62977,-1.4226 1.27745,-3.29838 1.43927,-4.16841 0.16185,-0.87004 0.35657,-1.66003 0.43272,-1.75556 0.0762,-0.0955 0.21663,-0.48631 0.31214,-0.86842 0.0955,-0.3821 0.25184,-0.85105 0.34738,-1.0421 0.0955,-0.19106 0.23975,-0.58184 0.32053,-0.86842 0.0808,-0.28658 0.34156,-0.99 0.57954,-1.56316 0.80111,-1.92928 3.99955,-13.66652 4.37353,-16.04942 0.20382,-1.29859 0.47798,-3.04664 0.60926,-3.88454 0.13128,-0.83791 0.40099,-1.78605 0.59933,-2.10699 0.19834,-0.32094 0.57485,-2.13643 0.83663,-4.03443 0.26181,-1.89799 0.59156,-4.23247 0.73276,-5.18773 1.42675,-9.65133 1.59732,-12.44908 1.60965,-26.399971 0.011,-12.43234 -0.2079,-17.93442 -0.88446,-22.231545 -0.9977,-6.336604 -1.57668,-9.506009 -2.15758,-11.810511 -0.24078,-0.955261 -0.59037,-2.518417 -0.77684,-3.473681 -0.18646,-0.955261 -0.54212,-2.3621 -0.79036,-3.12631 -0.24822,-0.764211 -0.51533,-1.742195 -0.59357,-2.173301 -0.49189,-2.71065 -2.64274,-9.191315 -3.48671,-10.50563 -0.55207,-0.859735 -0.82922,-1.563156 -0.61592,-1.563156 0.2133,0 0.002,-0.703418 -0.47163,-1.563155 -0.4727,-0.859735 -0.92718,-1.969068 -1.01,-2.465187 -0.21401,-1.282245 -5.85952,-12.572002 -6.78626,-13.571035 -0.42465,-0.457775 -1.33657,-1.940759 -2.02648,-3.295516 -0.68993,-1.35476 -1.94045,-3.268785 -2.77895,-4.253388 -0.8385,-0.984606 -3.46096,-4.256548 -5.82768,-7.2709872 -5.30881,-6.76172047 -16.2679,-17.3750688 -21.76194,-21.0753948 -0.851,-0.573156 -1.89974,-1.369599 -2.33055,-1.769873 -1.76661,-1.641374 -7.38405,-5.204401 -7.39392,-4.689809 -0.006,0.304937 -0.24033,0.225295 -0.52106,-0.17698 -0.68829,-0.98631 -5.72093,-4.015995 -5.72093,-3.444044 0,0.249508 -0.49415,-0.0405 -1.09811,-0.64446 -0.60397,-0.603962 -1.38554,-0.920473 -1.73684,-0.703358 -0.3513,0.217113 -0.63873,0.113377 -0.63873,-0.230528 0,-0.58015 -8.07185,-4.142099 -10.42104,-4.598601 -0.57316,-0.111378 -1.94804,-0.573005 -3.05532,-1.025838 -2.86532,-1.17182 -12.08447,-3.505496 -15.7354,-3.983163 -1.7014,-0.222602 -4.34398,-0.57726 -5.8724,-0.788128 -3.82835,-0.528179 -24.9258,-0.50487 -29.17891,0.03224 -3.39625,0.428898 -5.34643,0.753203 -9.20711,1.531097 -1.04977,0.211518 -2.37761,0.418087 -2.95077,0.459042 -0.57316,0.04095 -1.43289,0.38276 -1.91052,0.759567 -0.47763,0.376809 -0.86842,0.512576 -0.86842,0.301707 0,-0.441815 -7.67431,1.719854 -10.76841,3.033201 -1.14631,0.486575 -2.24052,0.921956 -2.43157,0.967514 -0.19106,0.04556 -1.05079,0.473545 -1.91053,0.951079 -0.85973,0.477535 -1.56315,0.675431 -1.56315,0.43977 0,-0.235661 -1.04625,0.218144 -2.325,1.008453 -1.27875,0.79031 -2.52927,1.232648 -2.77894,0.982976 -0.24967,-0.249672 -0.45395,-0.08921 -0.45395,0.356579 0,0.445788 -0.23447,0.773503 -0.52105,0.728252 -1.24125,-0.195985 -2.14487,0.168634 -3.64737,1.471745 -0.88114,0.764207 -2.00085,1.38947 -2.48825,1.38947 -0.4874,0 -1.30407,0.390788 -1.81482,0.86842 -0.51075,0.477632 -2.09624,1.464755 -3.5233,2.19361 -1.42707,0.728852 -2.59466,1.588587 -2.59466,1.910523 0,0.321933 -0.47876,0.585334 -1.06391,0.585334 -0.58515,0 -1.24386,0.468948 -1.4638,1.042105 -0.21994,0.573156 -0.81313,1.042102 -1.3182,1.042102 -0.50507,0 -2.07851,1.094209 -3.49653,2.431576 -1.41803,1.3373663 -2.7533,2.4315753 -2.96729,2.4315753 -0.75642,0 -16.09024,16.1260565 -16.09024,16.9215605 0,0.444037 -0.63739,1.2054 -1.41643,1.691915 -0.77903,0.4865172 -1.22953,1.1869812 -1.0011,1.5565872 0.22843,0.36961 0.11435,0.672015 -0.25351,0.672015 -0.71627,0 -7.56234,10.319972 -7.897,11.904167 -0.1102,0.521642 -0.395,1.104763 -0.6329,1.295814 -1.60429,1.288402 -10.14785,21.593413 -10.65311,25.318664 -0.10657,0.785766 -0.37599,1.897614 -0.5987,2.470773 -0.66672,1.715824 -1.92219,6.89339 -2.19584,9.055693 -0.14068,1.111578 -0.44097,2.320696 -0.6673,2.68692 -0.22634,0.366222 -0.5983,2.328949 -0.82657,4.361607 -0.22827,2.032666 -0.58309,5.102591 -0.78847,6.822063 -0.20539,1.719463 -0.36754,11.098403 -0.36033,20.842073 0.0112,15.086701 0.23004,18.849871 1.47496,25.357861 0.80403,4.20315 1.63524,8.70152 1.84714,9.99637 0.2119,1.29485 0.55487,2.62868 0.76216,2.96408 0.20729,0.3354 0.52631,1.4644 0.70894,2.50889 0.18263,1.04448 0.66304,3.14958 1.06757,4.678 0.40453,1.52842 0.68044,2.77895 0.61312,2.77895 -0.0673,0 0.23999,0.93789 0.68289,2.0842 0.44289,1.14632 0.92622,2.68509 1.07406,3.41948 0.43571,2.16444 3.22252,10.41498 3.77291,11.16997 0.27856,0.38211 0.70457,1.52547 0.94669,2.5408 0.24212,1.01534 1.05742,3.28594 1.81178,5.04578 0.75435,1.75984 1.40486,3.43016 1.44558,3.71183 0.0407,0.28165 0.61658,1.60631 1.27971,2.94368 0.66313,1.33737 3.64229,7.35552 6.62034,13.37367 2.97806,6.01815 5.71265,10.94209 6.07687,10.94209 0.36423,0 0.49827,0.26529 0.29788,0.58952 -0.20039,0.32425 0.18947,1.18398 0.86635,1.91053 0.67689,0.72653 1.28878,1.63363 1.35977,2.01573 0.071,0.3821 0.5975,1.24183 1.17005,1.91051 0.57254,0.66869 0.87967,1.21579 0.6825,1.21579 -0.45274,0 7.07971,11.23692 11.99184,17.88947 2.04552,2.77024 4.0379,5.03684 4.42752,5.03684 0.38962,0 0.53065,0.28758 0.3134,0.63909 -0.21724,0.35151 0.37897,1.24791 1.32491,1.99197 0.94595,0.74408 1.56098,1.51181 1.36675,1.70604 -0.19423,0.19423 0.58061,1.13885 1.72188,2.09916 1.14126,0.96032 1.92755,1.89351 1.74729,2.07376 -0.54525,0.54526 21.61618,23.04765 28.73945,29.18164 9.18071,7.90568 20.45796,16.48015 21.12925,16.06527 0.30638,-0.18935 0.55706,-0.0547 0.55706,0.29913 0,0.35389 1.25053,1.47098 2.77895,2.48245 1.52842,1.01143 2.77894,1.66052 2.77894,1.44238 0,-0.21813 0.69483,0.0901 1.54406,0.68488 2.28044,1.59728 6.37886,1.31804 10.70714,-0.72959 z"
       id="path4571"
       inkscape:connector-curvature="0" />
    <path
       style="opacity:1;fill:#0b4f6c;fill-opacity:0;fill-rule:nonzero;stroke:none;stroke-width:0.69473588;stroke-opacity:0;paint-order:stroke markers fill"
       d="m 286.21224,307.89218 c -6.72405,-1.51178 -36.12641,-25.30039 -53.3155,-43.13603 -15.76582,-16.35886 -32.81732,-39.45044 -42.80639,-57.96951 -1.53401,-2.84395 -3.09303,-5.17082 -3.4645,-5.17082 -0.37146,0 -0.48217,-0.31265 -0.24601,-0.69475 0.23615,-0.3821 0.0798,-0.69473 -0.34737,-0.69473 -0.42721,0 -0.58352,-0.31262 -0.34737,-0.69475 0.23615,-0.38209 0.0462,-0.69472 -0.42216,-0.69472 -0.46833,0 -0.66932,-0.1822 -0.44663,-0.40491 0.2227,-0.22268 -0.8474,-3.11453 -2.37799,-6.42631 -1.5306,-3.31176 -4.04488,-9.14771 -5.58731,-12.96876 -1.54242,-3.82104 -3.07953,-7.05221 -3.41579,-7.18038 -0.33626,-0.12816 -0.461,-0.47635 -0.2772,-0.77375 0.34904,-0.56476 -3.70673,-13.32411 -4.42789,-13.93005 -0.22739,-0.19105 -0.45306,-0.97263 -0.5015,-1.73684 -0.0484,-0.76421 -1.06903,-5.20866 -2.26797,-9.87655 -1.19895,-4.6679 -2.37417,-9.90447 -2.61162,-11.63683 -0.23744,-1.73236 -0.6237,-3.15186 -0.85834,-3.15445 -0.23464,-0.003 -0.51352,-1.76606 -0.61974,-3.91883 -0.10621,-2.15277 -0.38031,-4.21702 -0.60911,-4.58722 -0.39878,-0.64525 -0.51693,-1.67455 -1.1762,-10.24711 -0.55842,-7.26121 -0.40897,-25.385641 0.27441,-33.277501 0.37718,-4.355794 0.52681,-8.078607 0.33251,-8.272902 -0.1943,-0.194305 -0.0668,-0.698412 0.28326,-1.120249 0.35009,-0.421837 0.73817,-2.326386 0.86239,-4.232337 0.12422,-1.905954 0.39507,-3.621679 0.60189,-3.812733 0.20682,-0.191051 0.95267,-2.837128 1.65744,-5.880174 0.70478,-3.043042 2.17522,-8.177056 3.26766,-11.408919 1.09244,-3.231863 1.84648,-6.015891 1.67564,-6.186726 -0.17084,-0.170835 0.16143,-0.782656 0.73836,-1.359591 0.57694,-0.576938 0.89224,-1.457411 0.70068,-1.956614 -0.19156,-0.499202 -0.11157,-1.005998 0.17777,-1.126208 0.28933,-0.120217 2.17068,-3.542577 4.18077,-7.605254 17.58847,-35.5486817 48.72035,-59.818097 88.22279,-68.77565 5.52285,-1.252358 9.75247,-1.588262 24.29671,-1.929573 9.68538,-0.227287 17.75915,-0.170567 17.94172,0.126045 0.18257,0.296612 1.32447,0.534055 2.53756,0.527651 2.76549,-0.0146 5.34999,0.351674 6.79143,0.962475 0.61167,0.259193 1.39325,0.406078 1.73684,0.326412 0.34358,-0.07967 1.09365,0.0207 1.66681,0.223038 0.57315,0.202337 5.25262,1.71454 10.39881,3.360452 11.28153,3.608181 25.6534,10.694216 34.75902,17.137891 8.31478,5.884031 23.29215,20.8279043 28.9983,28.9334488 2.38435,3.3869522 5.95938,9.0143112 7.94449,12.5052462 1.98514,3.490935 3.94219,6.576838 4.34902,6.857568 0.40685,0.280728 0.5171,0.515203 0.24501,0.521053 -0.2721,0.0056 0.53903,2.433526 1.8025,5.394839 1.26347,2.961312 3.17396,8.041566 4.24556,11.289458 1.07159,3.24789 2.13626,6.061571 2.36592,6.252622 0.22964,0.191054 0.44797,0.97263 0.48515,1.73684 0.0371,0.764211 0.89691,5.022371 1.91051,9.462589 1.01363,4.44021 1.84294,8.876751 1.84294,9.858981 0,0.982233 0.26511,1.949715 0.58912,2.149965 0.79094,0.48883 0.82272,45.421197 0.0336,47.496757 -0.34154,0.89826 -0.74574,3.0989 -0.89825,4.8903 -0.15253,1.7914 -0.49901,3.8042 -0.76996,4.47288 -0.27095,0.66868 -0.3127,1.68474 -0.0927,2.25789 0.21994,0.57316 0.0971,1.04211 -0.27304,1.04211 -0.37011,0 -0.67294,0.59675 -0.67294,1.32611 0,0.72935 -1.08253,5.62388 -2.40563,10.87673 -1.32309,5.25284 -2.25903,9.7878 -2.07987,10.0777 0.17916,0.28988 0.0577,0.63192 -0.26991,0.76009 -0.32763,0.12816 -1.46261,2.89038 -2.5222,6.13827 -1.05958,3.24789 -3.34662,9.48812 -5.08233,13.86718 -1.73571,4.37907 -3.15582,8.3651 -3.15582,8.85789 0,0.49278 -0.21425,0.89596 -0.4761,0.89596 -0.26186,0 -1.51514,2.26657 -2.78508,5.03684 -1.26994,2.77024 -3.98309,8.11356 -6.02926,11.87401 -2.04617,3.76046 -3.78893,7.17335 -3.87282,7.58419 -0.0839,0.41086 -0.5757,1.24202 -1.09295,1.84702 -0.51724,0.605 -3.38648,4.91482 -6.3761,9.57739 -18.18068,28.35441 -47.98547,59.90785 -74.6623,79.04272 -9.14012,6.55604 -13.61217,8.34096 -18.2727,7.29312 z m 9.33445,-19.16127 c 2.10557,-0.9961 3.99476,-2.24481 4.19819,-2.77494 0.20342,-0.53013 0.60124,-0.82088 0.88401,-0.64612 0.28278,0.17478 1.65687,-0.72891 3.05352,-2.00821 1.39665,-1.27928 2.53937,-2.168 2.53937,-1.97491 0,0.41218 5.53844,-3.98676 9.03156,-7.17334 1.33737,-1.21999 6.18315,-5.49971 10.76841,-9.51047 4.58526,-4.01077 11.3981,-10.53186 15.13964,-14.49132 3.74155,-3.95946 8.11422,-8.52768 9.71704,-10.15163 1.60282,-1.62396 2.72516,-2.95264 2.49408,-2.95264 -0.23107,0 0.61205,-1.0944 1.8736,-2.43206 2.50299,-2.65392 12.71232,-16.36246 12.79295,-17.17767 0.0274,-0.2775 0.81759,-1.33287 1.75589,-2.34531 0.93827,-1.01243 1.5573,-2.08133 1.37561,-2.37531 -0.18171,-0.294 0.15659,-0.7214 0.7518,-0.94979 0.59517,-0.2284 0.88755,-0.73011 0.64974,-1.11491 -0.23784,-0.38479 -0.16873,-0.69963 0.15353,-0.69963 0.60349,0 3.18767,-3.97089 2.82517,-4.34122 -0.11153,-0.11394 0.48982,-0.95062 1.33632,-1.85925 0.84653,-0.90863 1.37518,-1.91735 1.17479,-2.24158 -0.20038,-0.32425 -0.0834,-0.58953 0.25989,-0.58953 0.58698,0 2.50893,-3.50735 2.24162,-4.09074 -0.0679,-0.14832 0.15553,-0.46095 0.49665,-0.69475 1.37443,-0.94187 10.7498,-19.8048 11.43359,-23.00394 0.1225,-0.57316 0.42596,-1.19842 0.67434,-1.38947 0.24839,-0.19106 0.56102,-0.97263 0.69475,-1.73684 0.13372,-0.76421 0.46969,-1.55936 0.74662,-1.767 0.27693,-0.20764 0.62207,-0.98922 0.76699,-1.73684 0.14492,-0.74762 0.77874,-2.52326 1.40852,-3.94586 0.62977,-1.4226 1.27745,-3.29838 1.43927,-4.16841 0.16185,-0.87004 0.35657,-1.66003 0.43272,-1.75556 0.0762,-0.0955 0.21663,-0.48631 0.31214,-0.86842 0.0955,-0.3821 0.25184,-0.85105 0.34738,-1.0421 0.0955,-0.19106 0.23975,-0.58184 0.32053,-0.86842 0.0808,-0.28658 0.34156,-0.99 0.57954,-1.56316 0.80111,-1.92928 3.99955,-13.66652 4.37353,-16.04942 0.20382,-1.29859 0.47798,-3.04664 0.60926,-3.88454 0.13128,-0.83791 0.40099,-1.78605 0.59933,-2.10699 0.19834,-0.32094 0.57485,-2.13643 0.83663,-4.03443 0.26181,-1.89799 0.59156,-4.23247 0.73276,-5.18773 1.42675,-9.65133 1.59732,-12.44908 1.60965,-26.399971 0.011,-12.43234 -0.2079,-17.93442 -0.88446,-22.231545 -0.9977,-6.336604 -1.57668,-9.506009 -2.15758,-11.810511 -0.24078,-0.955261 -0.59037,-2.518417 -0.77684,-3.473681 -0.18646,-0.955261 -0.54212,-2.3621 -0.79036,-3.12631 -0.24822,-0.764211 -0.51533,-1.742195 -0.59357,-2.173301 -0.49189,-2.71065 -2.64274,-9.191315 -3.48671,-10.50563 -0.55207,-0.859735 -0.82922,-1.563156 -0.61592,-1.563156 0.2133,0 0.002,-0.703418 -0.47163,-1.563155 -0.4727,-0.859735 -0.92718,-1.969068 -1.01,-2.465187 -0.21401,-1.282245 -5.85952,-12.572002 -6.78626,-13.571035 -0.42465,-0.457775 -1.33657,-1.940759 -2.02648,-3.295516 -0.68993,-1.35476 -1.94045,-3.268785 -2.77895,-4.253388 -0.8385,-0.984606 -3.46096,-4.256548 -5.82768,-7.2709872 -5.30881,-6.76172047 -16.2679,-17.3750688 -21.76194,-21.0753948 -0.851,-0.573156 -1.89974,-1.369599 -2.33055,-1.769873 -1.76661,-1.641374 -7.38405,-5.204401 -7.39392,-4.689809 -0.006,0.304937 -0.24033,0.225295 -0.52106,-0.17698 -0.68829,-0.98631 -5.72093,-4.015995 -5.72093,-3.444044 0,0.249508 -0.49415,-0.0405 -1.09811,-0.64446 -0.60397,-0.603962 -1.38554,-0.920473 -1.73684,-0.703358 -0.3513,0.217113 -0.63873,0.113377 -0.63873,-0.230528 0,-0.58015 -8.07185,-4.142099 -10.42104,-4.598601 -0.57316,-0.111378 -1.94804,-0.573005 -3.05532,-1.025838 -2.86532,-1.17182 -12.08447,-3.505496 -15.7354,-3.983163 -1.7014,-0.222602 -4.34398,-0.57726 -5.8724,-0.788128 -3.82835,-0.528179 -24.9258,-0.50487 -29.17891,0.03224 -3.39625,0.428898 -5.34643,0.753203 -9.20711,1.531097 -1.04977,0.211518 -2.37761,0.418087 -2.95077,0.459042 -0.57316,0.04095 -1.43289,0.38276 -1.91052,0.759567 -0.47763,0.376809 -0.86842,0.512576 -0.86842,0.301707 0,-0.441815 -7.67431,1.719854 -10.76841,3.033201 -1.14631,0.486575 -2.24052,0.921956 -2.43157,0.967514 -0.19106,0.04556 -1.05079,0.473545 -1.91053,0.951079 -0.85973,0.477535 -1.56315,0.675431 -1.56315,0.43977 0,-0.235661 -1.04625,0.218144 -2.325,1.008453 -1.27875,0.79031 -2.52927,1.232648 -2.77894,0.982976 -0.24967,-0.249672 -0.45395,-0.08921 -0.45395,0.356579 0,0.445788 -0.23447,0.773503 -0.52105,0.728252 -1.24125,-0.195985 -2.14487,0.168634 -3.64737,1.471745 -0.88114,0.764207 -2.00085,1.38947 -2.48825,1.38947 -0.4874,0 -1.30407,0.390788 -1.81482,0.86842 -0.51075,0.477632 -2.09624,1.464755 -3.5233,2.19361 -1.42707,0.728852 -2.59466,1.588587 -2.59466,1.910523 0,0.321933 -0.47876,0.585334 -1.06391,0.585334 -0.58515,0 -1.24386,0.468948 -1.4638,1.042105 -0.21994,0.573156 -0.81313,1.042102 -1.3182,1.042102 -0.50507,0 -2.07851,1.094209 -3.49653,2.431576 -1.41803,1.3373663 -2.7533,2.4315753 -2.96729,2.4315753 -0.75642,0 -16.09024,16.1260565 -16.09024,16.9215605 0,0.444037 -0.63739,1.2054 -1.41643,1.691915 -0.77903,0.4865172 -1.22953,1.1869812 -1.0011,1.5565872 0.22843,0.36961 0.11435,0.672015 -0.25351,0.672015 -0.71627,0 -7.56234,10.319972 -7.897,11.904167 -0.1102,0.521642 -0.395,1.104763 -0.6329,1.295814 -1.60429,1.288402 -10.14785,21.593413 -10.65311,25.318664 -0.10657,0.785766 -0.37599,1.897614 -0.5987,2.470773 -0.66672,1.715824 -1.92219,6.89339 -2.19584,9.055693 -0.14068,1.111578 -0.44097,2.320696 -0.6673,2.68692 -0.22634,0.366222 -0.5983,2.328949 -0.82657,4.361607 -0.22827,2.032666 -0.58309,5.102591 -0.78847,6.822063 -0.20539,1.719463 -0.36754,11.098403 -0.36033,20.842073 0.0112,15.086701 0.23004,18.849871 1.47496,25.357861 0.80403,4.20315 1.63524,8.70152 1.84714,9.99637 0.2119,1.29485 0.55487,2.62868 0.76216,2.96408 0.20729,0.3354 0.52631,1.4644 0.70894,2.50889 0.18263,1.04448 0.66304,3.14958 1.06757,4.678 0.40453,1.52842 0.68044,2.77895 0.61312,2.77895 -0.0673,0 0.23999,0.93789 0.68289,2.0842 0.44289,1.14632 0.92622,2.68509 1.07406,3.41948 0.43571,2.16444 3.22252,10.41498 3.77291,11.16997 0.27856,0.38211 0.70457,1.52547 0.94669,2.5408 0.24212,1.01534 1.05742,3.28594 1.81178,5.04578 0.75435,1.75984 1.40486,3.43016 1.44558,3.71183 0.0407,0.28165 0.61658,1.60631 1.27971,2.94368 0.66313,1.33737 3.64229,7.35552 6.62034,13.37367 2.97806,6.01815 5.71265,10.94209 6.07687,10.94209 0.36423,0 0.49827,0.26529 0.29788,0.58952 -0.20039,0.32425 0.18947,1.18398 0.86635,1.91053 0.67689,0.72653 1.28878,1.63363 1.35977,2.01573 0.071,0.3821 0.5975,1.24183 1.17005,1.91051 0.57254,0.66869 0.87967,1.21579 0.6825,1.21579 -0.45274,0 7.07971,11.23692 11.99184,17.88947 2.04552,2.77024 4.0379,5.03684 4.42752,5.03684 0.38962,0 0.53065,0.28758 0.3134,0.63909 -0.21724,0.35151 0.37897,1.24791 1.32491,1.99197 0.94595,0.74408 1.56098,1.51181 1.36675,1.70604 -0.19423,0.19423 0.58061,1.13885 1.72188,2.09916 1.14126,0.96032 1.92755,1.89351 1.74729,2.07376 -0.54525,0.54526 21.61618,23.04765 28.73945,29.18164 9.18071,7.90568 20.45796,16.48015 21.12925,16.06527 0.30638,-0.18935 0.55706,-0.0547 0.55706,0.29913 0,0.35389 1.25053,1.47098 2.77895,2.48245 1.52842,1.01143 2.77894,1.66052 2.77894,1.44238 0,-0.21813 0.69483,0.0901 1.54406,0.68488 2.28044,1.59728 6.37886,1.31804 10.70714,-0.72959 z"
       id="path4573"
       inkscape:connector-curvature="0" />
    <path
       style="opacity:1;fill:#0b4f6c;fill-opacity:0;fill-rule:nonzero;stroke:none;stroke-width:0.69473588;stroke-opacity:0;paint-order:stroke markers fill"
       d="m 286.21224,307.89218 c -6.72405,-1.51178 -36.12641,-25.30039 -53.3155,-43.13603 -15.76582,-16.35886 -32.81732,-39.45044 -42.80639,-57.96951 -1.53401,-2.84395 -3.09303,-5.17082 -3.4645,-5.17082 -0.37146,0 -0.48217,-0.31265 -0.24601,-0.69475 0.23615,-0.3821 0.0798,-0.69473 -0.34737,-0.69473 -0.42721,0 -0.58352,-0.31262 -0.34737,-0.69475 0.23615,-0.38209 0.0462,-0.69472 -0.42216,-0.69472 -0.46833,0 -0.66932,-0.1822 -0.44663,-0.40491 0.2227,-0.22268 -0.8474,-3.11453 -2.37799,-6.42631 -1.5306,-3.31176 -4.04488,-9.14771 -5.58731,-12.96876 -1.54242,-3.82104 -3.07953,-7.05221 -3.41579,-7.18038 -0.33626,-0.12816 -0.461,-0.47635 -0.2772,-0.77375 0.34904,-0.56476 -3.70673,-13.32411 -4.42789,-13.93005 -0.22739,-0.19105 -0.45306,-0.97263 -0.5015,-1.73684 -0.0484,-0.76421 -1.06903,-5.20866 -2.26797,-9.87655 -1.19895,-4.6679 -2.37417,-9.90447 -2.61162,-11.63683 -0.23744,-1.73236 -0.6237,-3.15186 -0.85834,-3.15445 -0.23464,-0.003 -0.51352,-1.76606 -0.61974,-3.91883 -0.10621,-2.15277 -0.38031,-4.21702 -0.60911,-4.58722 -0.39878,-0.64525 -0.51693,-1.67455 -1.1762,-10.24711 -0.55842,-7.26121 -0.40897,-25.385641 0.27441,-33.277501 0.37718,-4.355794 0.52681,-8.078607 0.33251,-8.272902 -0.1943,-0.194305 -0.0668,-0.698412 0.28326,-1.120249 0.35009,-0.421837 0.73817,-2.326386 0.86239,-4.232337 0.12422,-1.905954 0.39507,-3.621679 0.60189,-3.812733 0.20682,-0.191051 0.95267,-2.837128 1.65744,-5.880174 0.70478,-3.043042 2.17522,-8.177056 3.26766,-11.408919 1.09244,-3.231863 1.84648,-6.015891 1.67564,-6.186726 -0.17084,-0.170835 0.16143,-0.782656 0.73836,-1.359591 0.57694,-0.576938 0.89224,-1.457411 0.70068,-1.956614 -0.19156,-0.499202 -0.11157,-1.005998 0.17777,-1.126208 0.28933,-0.120217 2.17068,-3.542577 4.18077,-7.605254 17.58847,-35.5486817 48.72035,-59.818097 88.22279,-68.77565 5.52285,-1.252358 9.75247,-1.588262 24.29671,-1.929573 9.68538,-0.227287 17.75915,-0.170567 17.94172,0.126045 0.18257,0.296612 1.32447,0.534055 2.53756,0.527651 2.76549,-0.0146 5.34999,0.351674 6.79143,0.962475 0.61167,0.259193 1.39325,0.406078 1.73684,0.326412 0.34358,-0.07967 1.09365,0.0207 1.66681,0.223038 0.57315,0.202337 5.25262,1.71454 10.39881,3.360452 11.28153,3.608181 25.6534,10.694216 34.75902,17.137891 8.31478,5.884031 23.29215,20.8279043 28.9983,28.9334488 2.38435,3.3869522 5.95938,9.0143112 7.94449,12.5052462 1.98514,3.490935 3.94219,6.576838 4.34902,6.857568 0.40685,0.280728 0.5171,0.515203 0.24501,0.521053 -0.2721,0.0056 0.53903,2.433526 1.8025,5.394839 1.26347,2.961312 3.17396,8.041566 4.24556,11.289458 1.07159,3.24789 2.13626,6.061571 2.36592,6.252622 0.22964,0.191054 0.44797,0.97263 0.48515,1.73684 0.0371,0.764211 0.89691,5.022371 1.91051,9.462589 1.01363,4.44021 1.84294,8.876751 1.84294,9.858981 0,0.982233 0.26511,1.949715 0.58912,2.149965 0.79094,0.48883 0.82272,45.421197 0.0336,47.496757 -0.34154,0.89826 -0.74574,3.0989 -0.89825,4.8903 -0.15253,1.7914 -0.49901,3.8042 -0.76996,4.47288 -0.27095,0.66868 -0.3127,1.68474 -0.0927,2.25789 0.21994,0.57316 0.0971,1.04211 -0.27304,1.04211 -0.37011,0 -0.67294,0.59675 -0.67294,1.32611 0,0.72935 -1.08253,5.62388 -2.40563,10.87673 -1.32309,5.25284 -2.25903,9.7878 -2.07987,10.0777 0.17916,0.28988 0.0577,0.63192 -0.26991,0.76009 -0.32763,0.12816 -1.46261,2.89038 -2.5222,6.13827 -1.05958,3.24789 -3.34662,9.48812 -5.08233,13.86718 -1.73571,4.37907 -3.15582,8.3651 -3.15582,8.85789 0,0.49278 -0.21425,0.89596 -0.4761,0.89596 -0.26186,0 -1.51514,2.26657 -2.78508,5.03684 -1.26994,2.77024 -3.98309,8.11356 -6.02926,11.87401 -2.04617,3.76046 -3.78893,7.17335 -3.87282,7.58419 -0.0839,0.41086 -0.5757,1.24202 -1.09295,1.84702 -0.51724,0.605 -3.38648,4.91482 -6.3761,9.57739 -18.18068,28.35441 -47.98547,59.90785 -74.6623,79.04272 -9.14012,6.55604 -13.61217,8.34096 -18.2727,7.29312 z m 9.33445,-19.16127 c 2.10557,-0.9961 3.99476,-2.24481 4.19819,-2.77494 0.20342,-0.53013 0.60124,-0.82088 0.88401,-0.64612 0.28278,0.17478 1.65687,-0.72891 3.05352,-2.00821 1.39665,-1.27928 2.53937,-2.168 2.53937,-1.97491 0,0.41218 5.53844,-3.98676 9.03156,-7.17334 1.33737,-1.21999 6.18315,-5.49971 10.76841,-9.51047 4.58526,-4.01077 11.3981,-10.53186 15.13964,-14.49132 3.74155,-3.95946 8.11422,-8.52768 9.71704,-10.15163 1.60282,-1.62396 2.72516,-2.95264 2.49408,-2.95264 -0.23107,0 0.61205,-1.0944 1.8736,-2.43206 2.50299,-2.65392 12.71232,-16.36246 12.79295,-17.17767 0.0274,-0.2775 0.81759,-1.33287 1.75589,-2.34531 0.93827,-1.01243 1.5573,-2.08133 1.37561,-2.37531 -0.18171,-0.294 0.15659,-0.7214 0.7518,-0.94979 0.59517,-0.2284 0.88755,-0.73011 0.64974,-1.11491 -0.23784,-0.38479 -0.16873,-0.69963 0.15353,-0.69963 0.60349,0 3.18767,-3.97089 2.82517,-4.34122 -0.11153,-0.11394 0.48982,-0.95062 1.33632,-1.85925 0.84653,-0.90863 1.37518,-1.91735 1.17479,-2.24158 -0.20038,-0.32425 -0.0834,-0.58953 0.25989,-0.58953 0.58698,0 2.50893,-3.50735 2.24162,-4.09074 -0.0679,-0.14832 0.15553,-0.46095 0.49665,-0.69475 1.37443,-0.94187 10.7498,-19.8048 11.43359,-23.00394 0.1225,-0.57316 0.42596,-1.19842 0.67434,-1.38947 0.24839,-0.19106 0.56102,-0.97263 0.69475,-1.73684 0.13372,-0.76421 0.46969,-1.55936 0.74662,-1.767 0.27693,-0.20764 0.62207,-0.98922 0.76699,-1.73684 0.14492,-0.74762 0.77874,-2.52326 1.40852,-3.94586 0.62977,-1.4226 1.27745,-3.29838 1.43927,-4.16841 0.16185,-0.87004 0.35657,-1.66003 0.43272,-1.75556 0.0762,-0.0955 0.21663,-0.48631 0.31214,-0.86842 0.0955,-0.3821 0.25184,-0.85105 0.34738,-1.0421 0.0955,-0.19106 0.23975,-0.58184 0.32053,-0.86842 0.0808,-0.28658 0.34156,-0.99 0.57954,-1.56316 0.80111,-1.92928 3.99955,-13.66652 4.37353,-16.04942 0.20382,-1.29859 0.47798,-3.04664 0.60926,-3.88454 0.13128,-0.83791 0.40099,-1.78605 0.59933,-2.10699 0.19834,-0.32094 0.57485,-2.13643 0.83663,-4.03443 0.26181,-1.89799 0.59156,-4.23247 0.73276,-5.18773 1.42675,-9.65133 1.59732,-12.44908 1.60965,-26.399971 0.011,-12.43234 -0.2079,-17.93442 -0.88446,-22.231545 -0.9977,-6.336604 -1.57668,-9.506009 -2.15758,-11.810511 -0.24078,-0.955261 -0.59037,-2.518417 -0.77684,-3.473681 -0.18646,-0.955261 -0.54212,-2.3621 -0.79036,-3.12631 -0.24822,-0.764211 -0.51533,-1.742195 -0.59357,-2.173301 -0.49189,-2.71065 -2.64274,-9.191315 -3.48671,-10.50563 -0.55207,-0.859735 -0.82922,-1.563156 -0.61592,-1.563156 0.2133,0 0.002,-0.703418 -0.47163,-1.563155 -0.4727,-0.859735 -0.92718,-1.969068 -1.01,-2.465187 -0.21401,-1.282245 -5.85952,-12.572002 -6.78626,-13.571035 -0.42465,-0.457775 -1.33657,-1.940759 -2.02648,-3.295516 -0.68993,-1.35476 -1.94045,-3.268785 -2.77895,-4.253388 -0.8385,-0.984606 -3.46096,-4.256548 -5.82768,-7.2709872 -5.30881,-6.76172047 -16.2679,-17.3750688 -21.76194,-21.0753948 -0.851,-0.573156 -1.89974,-1.369599 -2.33055,-1.769873 -1.76661,-1.641374 -7.38405,-5.204401 -7.39392,-4.689809 -0.006,0.304937 -0.24033,0.225295 -0.52106,-0.17698 -0.68829,-0.98631 -5.72093,-4.015995 -5.72093,-3.444044 0,0.249508 -0.49415,-0.0405 -1.09811,-0.64446 -0.60397,-0.603962 -1.38554,-0.920473 -1.73684,-0.703358 -0.3513,0.217113 -0.63873,0.113377 -0.63873,-0.230528 0,-0.58015 -8.07185,-4.142099 -10.42104,-4.598601 -0.57316,-0.111378 -1.94804,-0.573005 -3.05532,-1.025838 -2.86532,-1.17182 -12.08447,-3.505496 -15.7354,-3.983163 -1.7014,-0.222602 -4.34398,-0.57726 -5.8724,-0.788128 -3.82835,-0.528179 -24.9258,-0.50487 -29.17891,0.03224 -3.39625,0.428898 -5.34643,0.753203 -9.20711,1.531097 -1.04977,0.211518 -2.37761,0.418087 -2.95077,0.459042 -0.57316,0.04095 -1.43289,0.38276 -1.91052,0.759567 -0.47763,0.376809 -0.86842,0.512576 -0.86842,0.301707 0,-0.441815 -7.67431,1.719854 -10.76841,3.033201 -1.14631,0.486575 -2.24052,0.921956 -2.43157,0.967514 -0.19106,0.04556 -1.05079,0.473545 -1.91053,0.951079 -0.85973,0.477535 -1.56315,0.675431 -1.56315,0.43977 0,-0.235661 -1.04625,0.218144 -2.325,1.008453 -1.27875,0.79031 -2.52927,1.232648 -2.77894,0.982976 -0.24967,-0.249672 -0.45395,-0.08921 -0.45395,0.356579 0,0.445788 -0.23447,0.773503 -0.52105,0.728252 -1.24125,-0.195985 -2.14487,0.168634 -3.64737,1.471745 -0.88114,0.764207 -2.00085,1.38947 -2.48825,1.38947 -0.4874,0 -1.30407,0.390788 -1.81482,0.86842 -0.51075,0.477632 -2.09624,1.464755 -3.5233,2.19361 -1.42707,0.728852 -2.59466,1.588587 -2.59466,1.910523 0,0.321933 -0.47876,0.585334 -1.06391,0.585334 -0.58515,0 -1.24386,0.468948 -1.4638,1.042105 -0.21994,0.573156 -0.81313,1.042102 -1.3182,1.042102 -0.50507,0 -2.07851,1.094209 -3.49653,2.431576 -1.41803,1.3373663 -2.7533,2.4315753 -2.96729,2.4315753 -0.75642,0 -16.09024,16.1260565 -16.09024,16.9215605 0,0.444037 -0.63739,1.2054 -1.41643,1.691915 -0.77903,0.4865172 -1.22953,1.1869812 -1.0011,1.5565872 0.22843,0.36961 0.11435,0.672015 -0.25351,0.672015 -0.71627,0 -7.56234,10.319972 -7.897,11.904167 -0.1102,0.521642 -0.395,1.104763 -0.6329,1.295814 -1.60429,1.288402 -10.14785,21.593413 -10.65311,25.318664 -0.10657,0.785766 -0.37599,1.897614 -0.5987,2.470773 -0.66672,1.715824 -1.92219,6.89339 -2.19584,9.055693 -0.14068,1.111578 -0.44097,2.320696 -0.6673,2.68692 -0.22634,0.366222 -0.5983,2.328949 -0.82657,4.361607 -0.22827,2.032666 -0.58309,5.102591 -0.78847,6.822063 -0.20539,1.719463 -0.36754,11.098403 -0.36033,20.842073 0.0112,15.086701 0.23004,18.849871 1.47496,25.357861 0.80403,4.20315 1.63524,8.70152 1.84714,9.99637 0.2119,1.29485 0.55487,2.62868 0.76216,2.96408 0.20729,0.3354 0.52631,1.4644 0.70894,2.50889 0.18263,1.04448 0.66304,3.14958 1.06757,4.678 0.40453,1.52842 0.68044,2.77895 0.61312,2.77895 -0.0673,0 0.23999,0.93789 0.68289,2.0842 0.44289,1.14632 0.92622,2.68509 1.07406,3.41948 0.43571,2.16444 3.22252,10.41498 3.77291,11.16997 0.27856,0.38211 0.70457,1.52547 0.94669,2.5408 0.24212,1.01534 1.05742,3.28594 1.81178,5.04578 0.75435,1.75984 1.40486,3.43016 1.44558,3.71183 0.0407,0.28165 0.61658,1.60631 1.27971,2.94368 0.66313,1.33737 3.64229,7.35552 6.62034,13.37367 2.97806,6.01815 5.71265,10.94209 6.07687,10.94209 0.36423,0 0.49827,0.26529 0.29788,0.58952 -0.20039,0.32425 0.18947,1.18398 0.86635,1.91053 0.67689,0.72653 1.28878,1.63363 1.35977,2.01573 0.071,0.3821 0.5975,1.24183 1.17005,1.91051 0.57254,0.66869 0.87967,1.21579 0.6825,1.21579 -0.45274,0 7.07971,11.23692 11.99184,17.88947 2.04552,2.77024 4.0379,5.03684 4.42752,5.03684 0.38962,0 0.53065,0.28758 0.3134,0.63909 -0.21724,0.35151 0.37897,1.24791 1.32491,1.99197 0.94595,0.74408 1.56098,1.51181 1.36675,1.70604 -0.19423,0.19423 0.58061,1.13885 1.72188,2.09916 1.14126,0.96032 1.92755,1.89351 1.74729,2.07376 -0.54525,0.54526 21.61618,23.04765 28.73945,29.18164 9.18071,7.90568 20.45796,16.48015 21.12925,16.06527 0.30638,-0.18935 0.55706,-0.0547 0.55706,0.29913 0,0.35389 1.25053,1.47098 2.77895,2.48245 1.52842,1.01143 2.77894,1.66052 2.77894,1.44238 0,-0.21813 0.69483,0.0901 1.54406,0.68488 2.28044,1.59728 6.37886,1.31804 10.70714,-0.72959 z"
       id="path4575"
       inkscape:connector-curvature="0" />
    <path
       style="opacity:1;fill:#0b4f6c;fill-opacity:0;fill-rule:nonzero;stroke:none;stroke-width:0.69473588;stroke-opacity:0;paint-order:stroke markers fill"
       d="m 286.21224,307.89218 c -6.72405,-1.51178 -36.12641,-25.30039 -53.3155,-43.13603 -15.76582,-16.35886 -32.81732,-39.45044 -42.80639,-57.96951 -1.53401,-2.84395 -3.09303,-5.17082 -3.4645,-5.17082 -0.37146,0 -0.48217,-0.31265 -0.24601,-0.69475 0.23615,-0.3821 0.0798,-0.69473 -0.34737,-0.69473 -0.42721,0 -0.58352,-0.31262 -0.34737,-0.69475 0.23615,-0.38209 0.0462,-0.69472 -0.42216,-0.69472 -0.46833,0 -0.66932,-0.1822 -0.44663,-0.40491 0.2227,-0.22268 -0.8474,-3.11453 -2.37799,-6.42631 -1.5306,-3.31176 -4.04488,-9.14771 -5.58731,-12.96876 -1.54242,-3.82104 -3.07953,-7.05221 -3.41579,-7.18038 -0.33626,-0.12816 -0.461,-0.47635 -0.2772,-0.77375 0.34904,-0.56476 -3.70673,-13.32411 -4.42789,-13.93005 -0.22739,-0.19105 -0.45306,-0.97263 -0.5015,-1.73684 -0.0484,-0.76421 -1.06903,-5.20866 -2.26797,-9.87655 -1.19895,-4.6679 -2.37417,-9.90447 -2.61162,-11.63683 -0.23744,-1.73236 -0.6237,-3.15186 -0.85834,-3.15445 -0.23464,-0.003 -0.51352,-1.76606 -0.61974,-3.91883 -0.10621,-2.15277 -0.38031,-4.21702 -0.60911,-4.58722 -0.39878,-0.64525 -0.51693,-1.67455 -1.1762,-10.24711 -0.55842,-7.26121 -0.40897,-25.385641 0.27441,-33.277501 0.37718,-4.355794 0.52681,-8.078607 0.33251,-8.272902 -0.1943,-0.194305 -0.0668,-0.698412 0.28326,-1.120249 0.35009,-0.421837 0.73817,-2.326386 0.86239,-4.232337 0.12422,-1.905954 0.39507,-3.621679 0.60189,-3.812733 0.20682,-0.191051 0.95267,-2.837128 1.65744,-5.880174 0.70478,-3.043042 2.17522,-8.177056 3.26766,-11.408919 1.09244,-3.231863 1.84648,-6.015891 1.67564,-6.186726 -0.17084,-0.170835 0.16143,-0.782656 0.73836,-1.359591 0.57694,-0.576938 0.89224,-1.457411 0.70068,-1.956614 -0.19156,-0.499202 -0.11157,-1.005998 0.17777,-1.126208 0.28933,-0.120217 2.17068,-3.542577 4.18077,-7.605254 17.58847,-35.5486817 48.72035,-59.818097 88.22279,-68.77565 5.52285,-1.252358 9.75247,-1.588262 24.29671,-1.929573 9.68538,-0.227287 17.75915,-0.170567 17.94172,0.126045 0.18257,0.296612 1.32447,0.534055 2.53756,0.527651 2.76549,-0.0146 5.34999,0.351674 6.79143,0.962475 0.61167,0.259193 1.39325,0.406078 1.73684,0.326412 0.34358,-0.07967 1.09365,0.0207 1.66681,0.223038 0.57315,0.202337 5.25262,1.71454 10.39881,3.360452 11.28153,3.608181 25.6534,10.694216 34.75902,17.137891 8.31478,5.884031 23.29215,20.8279043 28.9983,28.9334488 2.38435,3.3869522 5.95938,9.0143112 7.94449,12.5052462 1.98514,3.490935 3.94219,6.576838 4.34902,6.857568 0.40685,0.280728 0.5171,0.515203 0.24501,0.521053 -0.2721,0.0056 0.53903,2.433526 1.8025,5.394839 1.26347,2.961312 3.17396,8.041566 4.24556,11.289458 1.07159,3.24789 2.13626,6.061571 2.36592,6.252622 0.22964,0.191054 0.44797,0.97263 0.48515,1.73684 0.0371,0.764211 0.89691,5.022371 1.91051,9.462589 1.01363,4.44021 1.84294,8.876751 1.84294,9.858981 0,0.982233 0.26511,1.949715 0.58912,2.149965 0.79094,0.48883 0.82272,45.421197 0.0336,47.496757 -0.34154,0.89826 -0.74574,3.0989 -0.89825,4.8903 -0.15253,1.7914 -0.49901,3.8042 -0.76996,4.47288 -0.27095,0.66868 -0.3127,1.68474 -0.0927,2.25789 0.21994,0.57316 0.0971,1.04211 -0.27304,1.04211 -0.37011,0 -0.67294,0.59675 -0.67294,1.32611 0,0.72935 -1.08253,5.62388 -2.40563,10.87673 -1.32309,5.25284 -2.25903,9.7878 -2.07987,10.0777 0.17916,0.28988 0.0577,0.63192 -0.26991,0.76009 -0.32763,0.12816 -1.46261,2.89038 -2.5222,6.13827 -1.05958,3.24789 -3.34662,9.48812 -5.08233,13.86718 -1.73571,4.37907 -3.15582,8.3651 -3.15582,8.85789 0,0.49278 -0.21425,0.89596 -0.4761,0.89596 -0.26186,0 -1.51514,2.26657 -2.78508,5.03684 -1.26994,2.77024 -3.98309,8.11356 -6.02926,11.87401 -2.04617,3.76046 -3.78893,7.17335 -3.87282,7.58419 -0.0839,0.41086 -0.5757,1.24202 -1.09295,1.84702 -0.51724,0.605 -3.38648,4.91482 -6.3761,9.57739 -18.18068,28.35441 -47.98547,59.90785 -74.6623,79.04272 -9.14012,6.55604 -13.61217,8.34096 -18.2727,7.29312 z m 9.33445,-19.16127 c 2.10557,-0.9961 3.99476,-2.24481 4.19819,-2.77494 0.20342,-0.53013 0.60124,-0.82088 0.88401,-0.64612 0.28278,0.17478 1.65687,-0.72891 3.05352,-2.00821 1.39665,-1.27928 2.53937,-2.168 2.53937,-1.97491 0,0.41218 5.53844,-3.98676 9.03156,-7.17334 1.33737,-1.21999 6.18315,-5.49971 10.76841,-9.51047 4.58526,-4.01077 11.3981,-10.53186 15.13964,-14.49132 3.74155,-3.95946 8.11422,-8.52768 9.71704,-10.15163 1.60282,-1.62396 2.72516,-2.95264 2.49408,-2.95264 -0.23107,0 0.61205,-1.0944 1.8736,-2.43206 2.50299,-2.65392 12.71232,-16.36246 12.79295,-17.17767 0.0274,-0.2775 0.81759,-1.33287 1.75589,-2.34531 0.93827,-1.01243 1.5573,-2.08133 1.37561,-2.37531 -0.18171,-0.294 0.15659,-0.7214 0.7518,-0.94979 0.59517,-0.2284 0.88755,-0.73011 0.64974,-1.11491 -0.23784,-0.38479 -0.16873,-0.69963 0.15353,-0.69963 0.60349,0 3.18767,-3.97089 2.82517,-4.34122 -0.11153,-0.11394 0.48982,-0.95062 1.33632,-1.85925 0.84653,-0.90863 1.37518,-1.91735 1.17479,-2.24158 -0.20038,-0.32425 -0.0834,-0.58953 0.25989,-0.58953 0.58698,0 2.50893,-3.50735 2.24162,-4.09074 -0.0679,-0.14832 0.15553,-0.46095 0.49665,-0.69475 1.37443,-0.94187 10.7498,-19.8048 11.43359,-23.00394 0.1225,-0.57316 0.42596,-1.19842 0.67434,-1.38947 0.24839,-0.19106 0.56102,-0.97263 0.69475,-1.73684 0.13372,-0.76421 0.46969,-1.55936 0.74662,-1.767 0.27693,-0.20764 0.62207,-0.98922 0.76699,-1.73684 0.14492,-0.74762 0.77874,-2.52326 1.40852,-3.94586 0.62977,-1.4226 1.27745,-3.29838 1.43927,-4.16841 0.16185,-0.87004 0.35657,-1.66003 0.43272,-1.75556 0.0762,-0.0955 0.21663,-0.48631 0.31214,-0.86842 0.0955,-0.3821 0.25184,-0.85105 0.34738,-1.0421 0.0955,-0.19106 0.23975,-0.58184 0.32053,-0.86842 0.0808,-0.28658 0.34156,-0.99 0.57954,-1.56316 0.80111,-1.92928 3.99955,-13.66652 4.37353,-16.04942 0.20382,-1.29859 0.47798,-3.04664 0.60926,-3.88454 0.13128,-0.83791 0.40099,-1.78605 0.59933,-2.10699 0.19834,-0.32094 0.57485,-2.13643 0.83663,-4.03443 0.26181,-1.89799 0.59156,-4.23247 0.73276,-5.18773 1.42675,-9.65133 1.59732,-12.44908 1.60965,-26.399971 0.011,-12.43234 -0.2079,-17.93442 -0.88446,-22.231545 -0.9977,-6.336604 -1.57668,-9.506009 -2.15758,-11.810511 -0.24078,-0.955261 -0.59037,-2.518417 -0.77684,-3.473681 -0.18646,-0.955261 -0.54212,-2.3621 -0.79036,-3.12631 -0.24822,-0.764211 -0.51533,-1.742195 -0.59357,-2.173301 -0.49189,-2.71065 -2.64274,-9.191315 -3.48671,-10.50563 -0.55207,-0.859735 -0.82922,-1.563156 -0.61592,-1.563156 0.2133,0 0.002,-0.703418 -0.47163,-1.563155 -0.4727,-0.859735 -0.92718,-1.969068 -1.01,-2.465187 -0.21401,-1.282245 -5.85952,-12.572002 -6.78626,-13.571035 -0.42465,-0.457775 -1.33657,-1.940759 -2.02648,-3.295516 -0.68993,-1.35476 -1.94045,-3.268785 -2.77895,-4.253388 -0.8385,-0.984606 -3.46096,-4.256548 -5.82768,-7.2709872 -5.30881,-6.76172047 -16.2679,-17.3750688 -21.76194,-21.0753948 -0.851,-0.573156 -1.89974,-1.369599 -2.33055,-1.769873 -1.76661,-1.641374 -7.38405,-5.204401 -7.39392,-4.689809 -0.006,0.304937 -0.24033,0.225295 -0.52106,-0.17698 -0.68829,-0.98631 -5.72093,-4.015995 -5.72093,-3.444044 0,0.249508 -0.49415,-0.0405 -1.09811,-0.64446 -0.60397,-0.603962 -1.38554,-0.920473 -1.73684,-0.703358 -0.3513,0.217113 -0.63873,0.113377 -0.63873,-0.230528 0,-0.58015 -8.07185,-4.142099 -10.42104,-4.598601 -0.57316,-0.111378 -1.94804,-0.573005 -3.05532,-1.025838 -2.86532,-1.17182 -12.08447,-3.505496 -15.7354,-3.983163 -1.7014,-0.222602 -4.34398,-0.57726 -5.8724,-0.788128 -3.82835,-0.528179 -24.9258,-0.50487 -29.17891,0.03224 -3.39625,0.428898 -5.34643,0.753203 -9.20711,1.531097 -1.04977,0.211518 -2.37761,0.418087 -2.95077,0.459042 -0.57316,0.04095 -1.43289,0.38276 -1.91052,0.759567 -0.47763,0.376809 -0.86842,0.512576 -0.86842,0.301707 0,-0.441815 -7.67431,1.719854 -10.76841,3.033201 -1.14631,0.486575 -2.24052,0.921956 -2.43157,0.967514 -0.19106,0.04556 -1.05079,0.473545 -1.91053,0.951079 -0.85973,0.477535 -1.56315,0.675431 -1.56315,0.43977 0,-0.235661 -1.04625,0.218144 -2.325,1.008453 -1.27875,0.79031 -2.52927,1.232648 -2.77894,0.982976 -0.24967,-0.249672 -0.45395,-0.08921 -0.45395,0.356579 0,0.445788 -0.23447,0.773503 -0.52105,0.728252 -1.24125,-0.195985 -2.14487,0.168634 -3.64737,1.471745 -0.88114,0.764207 -2.00085,1.38947 -2.48825,1.38947 -0.4874,0 -1.30407,0.390788 -1.81482,0.86842 -0.51075,0.477632 -2.09624,1.464755 -3.5233,2.19361 -1.42707,0.728852 -2.59466,1.588587 -2.59466,1.910523 0,0.321933 -0.47876,0.585334 -1.06391,0.585334 -0.58515,0 -1.24386,0.468948 -1.4638,1.042105 -0.21994,0.573156 -0.81313,1.042102 -1.3182,1.042102 -0.50507,0 -2.07851,1.094209 -3.49653,2.431576 -1.41803,1.3373663 -2.7533,2.4315753 -2.96729,2.4315753 -0.75642,0 -16.09024,16.1260565 -16.09024,16.9215605 0,0.444037 -0.63739,1.2054 -1.41643,1.691915 -0.77903,0.4865172 -1.22953,1.1869812 -1.0011,1.5565872 0.22843,0.36961 0.11435,0.672015 -0.25351,0.672015 -0.71627,0 -7.56234,10.319972 -7.897,11.904167 -0.1102,0.521642 -0.395,1.104763 -0.6329,1.295814 -1.60429,1.288402 -10.14785,21.593413 -10.65311,25.318664 -0.10657,0.785766 -0.37599,1.897614 -0.5987,2.470773 -0.66672,1.715824 -1.92219,6.89339 -2.19584,9.055693 -0.14068,1.111578 -0.44097,2.320696 -0.6673,2.68692 -0.22634,0.366222 -0.5983,2.328949 -0.82657,4.361607 -0.22827,2.032666 -0.58309,5.102591 -0.78847,6.822063 -0.20539,1.719463 -0.36754,11.098403 -0.36033,20.842073 0.0112,15.086701 0.23004,18.849871 1.47496,25.357861 0.80403,4.20315 1.63524,8.70152 1.84714,9.99637 0.2119,1.29485 0.55487,2.62868 0.76216,2.96408 0.20729,0.3354 0.52631,1.4644 0.70894,2.50889 0.18263,1.04448 0.66304,3.14958 1.06757,4.678 0.40453,1.52842 0.68044,2.77895 0.61312,2.77895 -0.0673,0 0.23999,0.93789 0.68289,2.0842 0.44289,1.14632 0.92622,2.68509 1.07406,3.41948 0.43571,2.16444 3.22252,10.41498 3.77291,11.16997 0.27856,0.38211 0.70457,1.52547 0.94669,2.5408 0.24212,1.01534 1.05742,3.28594 1.81178,5.04578 0.75435,1.75984 1.40486,3.43016 1.44558,3.71183 0.0407,0.28165 0.61658,1.60631 1.27971,2.94368 0.66313,1.33737 3.64229,7.35552 6.62034,13.37367 2.97806,6.01815 5.71265,10.94209 6.07687,10.94209 0.36423,0 0.49827,0.26529 0.29788,0.58952 -0.20039,0.32425 0.18947,1.18398 0.86635,1.91053 0.67689,0.72653 1.28878,1.63363 1.35977,2.01573 0.071,0.3821 0.5975,1.24183 1.17005,1.91051 0.57254,0.66869 0.87967,1.21579 0.6825,1.21579 -0.45274,0 7.07971,11.23692 11.99184,17.88947 2.04552,2.77024 4.0379,5.03684 4.42752,5.03684 0.38962,0 0.53065,0.28758 0.3134,0.63909 -0.21724,0.35151 0.37897,1.24791 1.32491,1.99197 0.94595,0.74408 1.56098,1.51181 1.36675,1.70604 -0.19423,0.19423 0.58061,1.13885 1.72188,2.09916 1.14126,0.96032 1.92755,1.89351 1.74729,2.07376 -0.54525,0.54526 21.61618,23.04765 28.73945,29.18164 9.18071,7.90568 20.45796,16.48015 21.12925,16.06527 0.30638,-0.18935 0.55706,-0.0547 0.55706,0.29913 0,0.35389 1.25053,1.47098 2.77895,2.48245 1.52842,1.01143 2.77894,1.66052 2.77894,1.44238 0,-0.21813 0.69483,0.0901 1.54406,0.68488 2.28044,1.59728 6.37886,1.31804 10.70714,-0.72959 z"
       id="path4577"
       inkscape:connector-curvature="0" />
    <path
       style="opacity:1;fill:#0b4f6c;fill-opacity:0;fill-rule:nonzero;stroke:none;stroke-width:0.69473588;stroke-opacity:0;paint-order:stroke markers fill"
       d="m 276.45451,206.27577 c -16.98733,-3.20837 -31.03896,-10.33276 -42.14737,-21.36935 -29.89904,-29.70572 -30.14019,-77.81426 -0.5338,-106.487447 9.20417,-8.914059 19.29289,-14.959442 31.68787,-18.988079 12.99964,-4.225167 29.44583,-4.676535 42.88584,-1.177007 8.30982,2.163723 21.63968,8.568277 28.17229,13.535854 13.86075,10.540088 23.89379,25.326704 28.28428,41.685119 1.57508,5.86857 1.79356,8.03661 1.79356,17.79836 0,9.85578 -0.21045,11.90141 -1.85659,18.04682 -7.23151,26.9968 -29.12647,48.56178 -56.54823,55.69595 -8.68953,2.26071 -23.35589,2.84287 -31.73785,1.25978 z m 28.41886,-15.56604 c 24.5606,-6.62676 42.42331,-26.29211 46.28625,-50.95728 1.04437,-6.66843 0.34715,-18.28428 -1.48729,-24.77867 -3.18256,-11.26701 -10.76218,-22.724115 -19.93391,-30.13144 -7.95098,-6.42141 -19.96533,-12.097055 -28.23128,-13.336611 l -3.03129,-0.454569 -0.44095,2.668961 c -0.7568,4.580546 -0.53465,45.395219 0.24707,45.395219 0.38683,0 8.5934,-4.34797 18.23682,-9.66216 22.12043,-12.189883 20.89796,-11.638878 22.90485,-10.323916 1.96974,1.290626 5.21064,7.090896 5.51824,9.876046 0.20351,1.84268 -0.19146,2.30204 -3.94225,4.58496 -9.76901,5.94591 -44.7525,24.967 -47.94675,26.06942 -3.3916,1.17054 -3.57121,1.16358 -6.79714,-0.2634 -5.67095,-2.50853 -5.58584,-1.96871 -5.90833,-37.47567 L 280.0682,71.178562 h -2.28737 c -5.69359,0 -16.89516,4.826758 -24.66529,10.628276 -17.48668,13.056331 -26.39996,29.787922 -26.39996,49.556782 0,28.75195 21.58694,54.55581 50.76344,60.67989 5.35453,1.1239 21.13269,0.35569 27.39435,-1.33378 z"
       id="path4579"
       inkscape:connector-curvature="0" />
    <path
       style="opacity:1;fill:#01baef;fill-opacity:0;fill-rule:nonzero;stroke:none;stroke-width:0.69473588;stroke-opacity:0;paint-order:stroke markers fill"
       d="m 144.78005,314.60895 c -5.7839,-1.25751 -15.89498,-6.22245 -20.99619,-10.30993 -8.4945,-6.80647 -15.25557,-17.38533 -17.96907,-28.11573 -1.3127,-5.19102 -1.34155,-8.80952 -1.16406,-145.99594 l 0.182,-140.672982 1.89275,-5.557889 c 2.83726,-8.331375 6.37778,-13.852436 13.37894,-20.863021 6.93867,-6.948021 13.25513,-10.76099 22.61044,-13.648931 l 5.1915,-1.602595 137.21034,-0.207219 c 96.33085,-0.145482 138.94183,0.0189 143.02201,0.551726 21.15126,2.76214 37.8751,17.459206 44.02985,38.693847 l 1.56893,5.4130256 V 131.58786 c 0,157.46883 0.53426,142.92976 -5.71863,155.62083 -2.74046,5.56211 -4.23991,7.58328 -9.53501,12.8528 -7.12537,7.09094 -11.61418,9.98276 -20.34378,13.10619 l -6.08674,2.17782 -141.37875,0.12262 c -119.55075,0.10371 -142.07596,-0.0289 -145.89453,-0.85917 z m 151.83707,-27.03659 c 8.54965,-4.28065 28.19339,-20.66784 42.92604,-35.80972 38.29133,-39.35493 62.21356,-87.52232 67.20065,-135.3085 1.21584,-11.65018 0.49772,-34.544339 -1.39942,-44.613569 -9.78191,-51.918691 -43.11295,-87.547367 -91.74352,-98.067761 -6.34249,-1.37209 -9.28989,-1.578091 -22.57892,-1.578091 -13.28903,0 -16.23643,0.206001 -22.57892,1.578091 -23.67223,5.121083 -41.93031,14.87342 -58.02866,30.9953086 C 200.44201,14.755061 194.33316,23.175795 188.21636,35.366937 162.77868,86.065699 172.30309,156.0784 212.88365,216.693 c 14.77657,22.07156 37.46904,45.71287 61.00994,63.561 12.54259,9.50945 16.07505,10.64714 22.72353,7.31836 z"
       id="path4673"
       inkscape:connector-curvature="0" />
  </g>
</svg>
